index UNSODA "UNSODA " "Present in 235 data set?"
 index code (1=yes,0=no)
  554 235
   
1581 1 1010 0
1582 2 1011 0
1583 3 1012 0
1584 4 1013 0
1585 5 1014 0
1586 6 1015 0
1587 7 1020 0
1588 8 1021 0
1589 9 1022 0
1590 10 1023 0
1591 11 1024 0
1592 12 1030 0
1593 13 1031 0
1594 14 1032 0
1595 16 1041 0
1596 17 1042 0
1597 18 1043 0
1598 19 1050 0
1599 20 1051 0
1600 21 1052 0
1601 22 1053 0
1602 23 1054 0
1603 24 1060 0
1604 25 1061 0
1605 26 1062 0
1606 27 1063 0
1607 28 1070 0
1608 29 1071 0
1609 30 1072 0
1610 31 1073 0
1611 32 1074 0
1612 33 1075 0
1613 42 1090 0
1614 43 1091 0
1615 44 1092 0
1616 45 1100 0
1617 46 1101 0
1618 47 1102 0
1619 48 1103 0
1620 49 1104 0
1621 50 1110 0
1622 51 1111 0
1623 52 1112 0
1624 53 1113 0
1625 55 1115 0
1626 56 1116 0
1627 57 1117 0
1628 58 1120 0
1629 59 1121 0
1630 60 1122 0
1631 61 1123 0
1632 62 1130 0
1633 63 1131 0
1634 64 1132 0
1635 65 1133 0
1636 68 1140 0
1637 69 1141 0
1638 75 1160 0
1639 76 1161 0
1640 77 1162 0
1641 78 1163 0
1642 79 1164 0
1643 80 1165 0
1644 81 1166 0
1645 82 1170 0
1646 83 1171 0
1647 84 1172 0
1648 85 1173 0
1649 86 1174 0
1650 87 1180 0
1651 88 1181 0
1652 89 1182 0
1653 90 1183 0
1654 91 1184 0
1655 92 1190 0
1656 93 1191 0
1657 94 1192 0
1658 95 1193 0
1659 96 1194 0
1660 97 1200 0
1661 98 1201 0
1662 99 1202 0
1663 100 1203 0
1664 101 1204 0
1665 102 1210 0
1666 103 1211 0
1667 104 1212 0
1668 105 1213 0
1669 125 1280 1
1670 126 1281 1
1671 127 1282 1
1672 128 1290 1
1673 129 1300 0
1674 130 1301 0
1675 132 1320 0
1676 133 1330 1
1677 134 1331 1
1678 135 1340 0
1679 136 1341 0
1680 137 1342 0
1681 138 1350 0
1682 139 1351 0
1683 140 1352 0
1684 141 1360 1
1685 142 1361 1
1686 143 1362 1
1687 144 1370 1
1688 145 1371 1
1689 146 1372 1
1690 147 1380 1
1691 148 1381 1
1692 149 1382 1
1693 150 1383 1
1694 151 1390 1
1695 152 1391 1
1696 153 1392 1
1697 156 1420 0
1698 161 1461 1
1699 162 1462 1
1700 163 1463 1
1701 164 1464 1
1702 165 1465 1
1703 166 1466 1
1704 167 1467 1
1705 171 1490 1
1706 172 2000 0
1707 173 2001 0
1708 174 2002 0
1709 175 2010 0
1710 176 2011 0
1711 177 2012 0
1712 178 2020 0
1713 179 2021 0
1714 180 2022 0
1715 197 2100 0
1716 199 2102 0
1717 200 2103 0
1718 201 2104 0
1719 202 2105 0
1720 203 2110 0
1721 204 2111 0
1722 205 2120 0
1723 206 2121 0
1724 207 2122 0
1725 208 2123 0
1726 209 2124 0
1727 210 2125 0
1728 211 2126 0
1729 212 2130 0
1730 213 2131 0
1731 214 2132 0
1732 219 2160 1
1733 220 2161 1
1734 225 2190 0
1735 226 2191 0
1736 227 2192 0
1737 228 2193 0
1738 229 2194 0
1739 230 2195 0
1740 231 2196 0
1741 232 2197 0
1742 233 2198 0
1743 234 2200 0
1744 235 2201 0
1745 237 2203 0
1746 246 2220 1
1747 247 2221 1
1748 252 2241 1
1749 253 2242 1
1750 254 2243 1
1751 255 2250 1
1752 256 2251 1
1753 257 2252 0
1754 258 2253 1
1755 283 2320 1
1756 284 2321 1
1757 289 2334 1
1758 290 2340 1
1759 291 2341 1
1760 292 2342 1
1761 293 2350 1
1762 294 2351 1
1763 295 2360 1
1764 296 2361 1
1765 297 2362 1
1766 298 2370 0
1767 299 2371 0
1768 300 2372 0
1769 301 2373 0
1770 302 2374 0
1771 303 2380 0
1772 304 2381 0
1773 305 2382 0
1774 306 2383 0
1775 307 2384 0
1776 308 2385 0
1777 309 2390 0
1778 310 2391 0
1779 311 2392 0
1780 312 2393 0
1781 313 2394 0
1782 314 2395 0
1783 315 2400 0
1784 316 2401 0
1785 317 2402 0
1786 318 2403 0
1787 320 2405 0
1788 321 2410 0
1789 322 2411 0
1790 323 2412 0
1791 325 2414 0
1792 327 2420 0
1793 328 2421 0
1794 329 2422 0
1795 330 2423 0
1796 331 2424 0
1797 332 2425 0
1798 333 2430 0
1799 334 2431 0
1800 335 2432 0
1801 336 2433 0
1802 337 2434 0
1803 338 2435 0
1804 339 2440 0
1805 340 2441 0
1806 341 2442 0
1807 342 2443 0
1808 343 2444 0
1809 344 2445 0
1810 345 2450 0
1811 347 2452 0
1812 348 2453 0
1813 349 2454 0
1814 350 2455 0
1815 351 2460 0
1816 352 2461 0
1817 353 2462 0
1818 356 2470 0
1819 357 2471 1
1820 358 2472 1
1821 363 2491 0
1822 364 2492 0
1823 365 2493 0
1824 366 2530 0
1825 367 2531 0
1826 368 2532 0
1827 369 2540 0
1828 370 2541 0
1829 371 2542 0
1830 372 2550 0
1831 373 2551 0
1832 374 2552 0
1833 375 2560 1
1834 376 2561 1
1835 377 2562 1
1836 378 2570 1
1837 379 2571 1
1838 380 2572 1
1839 381 2573 1
1840 383 2580 0
1841 385 2582 0
1842 386 2583 0
1843 387 2584 0
1844 388 2590 1
1845 389 2591 1
1846 390 2592 1
1847 391 2593 1
1848 393 2601 1
1849 394 2602 1
1850 395 2603 0
1851 396 2604 1
1852 397 2605 0
1853 398 2610 1
1854 400 2612 1
1855 401 2613 0
1856 402 2614 0
1857 403 2620 1
1858 404 2621 1
1859 405 2622 1
1860 406 2630 1
1861 407 2631 1
1862 408 2640 1
1863 409 2641 1
1864 410 2642 1
1865 411 2650 1
1866 412 2651 1
1867 413 2652 1
1868 414 2653 1
1869 415 2660 1
1870 417 2670 1
1871 418 2671 1
1872 420 2680 1
1873 421 2681 1
1874 422 2682 1
1875 423 2683 1
1876 428 2710 1
1877 429 2711 1
1878 430 2712 1
1879 431 2713 1
1880 432 2720 1
1881 433 2721 1
1882 434 2722 1
1883 435 2723 0
1884 439 2740 1
1885 440 2741 1
1886 441 2742 1
1887 442 2743 1
1888 443 2750 1
1889 444 2751 1
1890 445 2752 0
1891 446 2753 0
1892 447 2760 1
1893 448 2761 1
1894 449 2762 1
1895 450 2763 1
1896 451 2764 1
1897 452 2765 1
1898 456 3030 0
1899 457 3031 0
1900 458 3032 0
1901 459 3033 0
1902 462 3070 0
1903 463 3080 0
1904 464 3090 0
1905 468 3101 1
1906 469 3102 1
1907 470 3103 1
1908 471 3110 1
1909 472 3111 1
1910 473 3112 1
1911 474 3113 1
1912 475 3120 1
1913 476 3130 1
1914 477 3131 1
1915 478 3132 0
1916 482 3141 0
1917 483 3142 1
1918 484 3143 0
1919 485 3144 1
1920 486 3150 0
1921 487 3151 0
1922 488 3152 1
1923 489 3153 0
1924 490 3154 1
1925 491 3155 1
1926 492 3160 0
1927 493 3161 1
1928 494 3162 1
1929 495 3163 1
1930 496 3164 0
1931 497 3165 0
1932 498 3170 0
1933 499 3171 1
1934 500 3172 1
1935 501 3173 0
1936 502 3174 0
1937 503 3175 0
1938 504 3180 0
1939 505 3181 0
1940 506 3182 1
1941 507 3183 0
1942 508 3190 0
1943 509 3191 0
1944 510 3192 0
1945 511 3193 0
1946 512 3194 0
1947 513 3195 0
1948 514 3200 0
1949 515 3201 0
1950 517 3203 0
1951 518 3204 1
1952 519 3205 0
1953 520 3206 0
1954 521 3210 0
1955 522 3211 0
1956 523 3212 0
1957 524 3213 0
1958 525 3214 0
1959 526 3220 0
1960 527 3221 0
1961 528 3222 0
1962 529 3223 0
1963 530 3224 0
1964 531 3225 0
1965 535 3240 0
1966 536 3241 0
1967 537 3242 0
1968 538 3243 0
1969 539 3250 0
1970 540 3251 0
1971 541 3252 0
1972 542 3253 0
1973 543 3260 0
1974 544 3261 0
1975 545 3262 0
1976 546 3263 0
1977 547 3264 0
1978 553 3281 0
1979 554 3282 0
1980 555 3283 0
1981 556 3290 0
1982 557 3291 0
1983 558 3292 0
1984 559 3293 0
1985 560 3300 0
1986 561 3301 0
1987 562 3302 0
1988 563 3303 0
1989 564 3310 0
1990 565 3311 0
1991 566 3312 0
1992 567 3313 0
1993 568 3320 0
1994 569 3321 0
1995 570 3322 0
1996 571 3323 0
1997 572 3330 0
1998 573 3331 0
1999 574 3332 0
2000 575 3340 1
2001 583 3380 1
2002 584 3381 0
2003 585 3390 1
2004 586 3391 0
2005 587 3392 1
2006 588 3393 1
2007 589 3395 1
2008 590 4000 1
2009 591 4001 0
2010 592 4010 1
2011 593 4011 1
2012 594 4020 1
2013 595 4021 1
2014 596 4030 0
2015 597 4031 1
2016 598 4032 1
2017 599 4033 1
2018 600 4040 1
2019 601 4041 1
2020 602 4042 1
2021 603 4043 1
2022 604 4050 1
2023 605 4051 1
2024 606 4052 1
2025 607 4060 1
2026 608 4061 1
2027 609 4062 1
2028 610 4070 1
2029 611 4071 1
2030 612 4080 1
2031 613 4081 1
2032 614 4082 1
2033 615 4090 1
2034 616 4091 1
2035 617 4092 1
2036 618 4100 1
2037 619 4101 1
2038 620 4102 1
2039 621 4110 1
2040 622 4111 1
2041 623 4112 1
2042 624 4120 1
2043 625 4121 1
2044 626 4130 1
2045 627 4131 1
2046 628 4132 1
2047 629 4140 1
2048 630 4141 1
2049 631 4142 1
2050 632 4150 1
2051 633 4151 1
2052 634 4152 1
2053 635 4160 1
2054 636 4161 1
2055 637 4162 1
2056 638 4170 1
2057 639 4171 1
2058 640 4172 1
2059 641 4180 1
2060 642 4181 1
2061 643 4182 1
2062 644 4183 1
2063 687 4310 0
2064 688 4311 0
2065 689 4340 1
2066 690 4341 1
2067 696 4440 0
2068 697 4441 0
2069 698 4442 1
2070 699 4443 0
2071 700 4444 0
2072 702 4450 0
2073 708 4510 0
2074 709 4511 1
2075 710 4512 0
2076 711 4514 0
2077 712 4520 1
2078 713 4521 1
2079 714 4522 0
2080 715 4523 1
2081 720 4540 0
2082 725 4550 1
2083 726 4551 1
2084 727 4552 1
2085 728 4553 0
2086 729 4560 1
2087 730 4561 1
2088 731 4562 1
2089 732 4564 1
2090 733 4570 1
2091 734 4571 1
2092 735 4572 1
2093 736 4573 1
2094 737 4574 1
2095 738 4575 1
2096 739 4580 1
2097 740 4581 1
2098 741 4582 1
2099 742 4583 0
2100 743 4590 1
2101 744 4591 1
2102 745 4592 1
2103 746 4600 1
2104 747 4601 0
2105 748 4602 1
2106 749 4610 1
2107 750 4611 1
2108 751 4612 1
2109 752 4620 1
2110 753 4621 1
2111 754 4622 1
2112 755 4650 1
2113 756 4651 1
2114 757 4660 1
2115 758 4661 1
2116 759 4670 1
2117 761 4672 1
2118 762 4673 1
2119 763 4680 1
2120 764 4681 1
2121 765 4690 0
2122 766 4700 0
2123 767 4710 0
2124 768 4720 0
2125 771 4770 1
2126 772 4780 1
2127 773 4790 1
2128 774 4791 1
2129 775 4800 1
2130 776 4801 1
2131 777 4810 1
2132 787 4940 0
2133 788 4941 0
2134 789 4950 0
