1669 125 1280 49 17 5.65 22 6.25 28 2.25 29 2.26 42 1.61 43 4.01 43 3.38 55 5.07 61 1.04 80 2.28 80 1.7 82 1.03 87 1.33 92 1.53 94 0.83 121 0.586 126 0.532 128 0.434 131 0.527 145 0.938 159 0.643 179 0.178 189 0.0608 193 0.129 205 0.0837 216 0.109 224 0.0794 232 0.135 243 0.0433 247 0.0468 299 0.0353 303 0.0362 307 0.0262 319 0.0215 342 0.0255 373 0.0214 411 0.0122 412 0.0112 416 0.0158 417 0.0103 423 0.0112 430 0.00687 504 0.00584 516 0.00638 519 0.00508 520 0.0054 535 0.0067 555 0.00565 595 0.00461                                                                                
1670 126 1281 49 13 5.525 15 6.242 17 9.71 24 2.689 34 6.163 34 7.881 42 2.732 43 3.528 52 2.232 59 1.033 74 2.854 80 2.364 85 1.978 92 3.274 103 1.671 113 0.6968 124 1.064 132 1.294 140 1.665 152 0.9508 154 0.9184 170 0.9427 189 0.1247 211 0.7473 228 0.5163 234 0.4857 247 0.4248 257 0.1668 263 0.06057 296 0.1399 309 0.1324 312 0.1479 338 0.06508 339 0.02111 353 0.06392 382 0.03061 402 0.04299 441 0.02183 454 0.02368 456 0.00617 478 0.00907 485 0.01128 503 0.01784 565 0.00267 587 0.00793 587 0.00694 604 0.00405 614 0.00525 649 0.00268                                                                                
1671 127 1282 49 13 9.607 14 8.478 18 2.121 23 3.054 24 1.37 27 1.708 29 2.792 35 2.846 39 0.3367 41 0.7227 42 0.4889 50 0.7172 54 1.387 57 0.9131 71 0.138 71 0.2368 83 0.1929 83 0.2395 84 0.5662 86 0.06982 106 0.04447 108 0.09366 121 0.08491 133 0.06681 140 0.0292 144 0.167 164 0.03087 199 0.01182 205 0.02309 217 0.02666 223 0.01071 223 0.05608 245 0.01063 269 0.00538 305 0.00874 306 0.00943 342 0.01522 350 0.00293 351 0.00396 368 0.005 420 0.0046 425 0.00344 434 0.00745 489 0.00284 553 0.001 557 0.00091 574 0.00148 589 0.00281 638 0.00197                                                                                

1676 133 1330 23 0 35 38 4.22 100 0.776 132 0.403 149 0.384 183 0.116 194 0.0911 217 0.0906 285 0.0713 309 0.0612 330 0.0462 352 0.0404 380 0.0032 428 0.0023 448 0.0017 488 0.0015 506 0.0014 534 0.0013 571 0.001 625 0.0009 676 0.0006 701 0.0005 717 0.0004                                                                                                                                    
1677 134 1331 34 0 40 25 2.45 27 1.77 31 0.279 37 0.217 43 0.173 45 0.166 56 0.145 64 0.105 79 0.0877 95 0.0627 99 0.0608 101 0.0566 111 0.0345 133 0.0323 153 0.0271 158 0.0213 162 0.017 174 0.0155 179 0.0151 199 0.0138 217 0.0111 235 0.0106 254 0.0095 260 0.0074 283 0.0068 384 0.0057 440 0.0042 468 0.0037 600 0.0029 628 0.0026 633 0.0013 1000 0.0002 2000 0.0001                                                                                                              
1684 141 1360 43 10 0.304 11 0.38 15 0.307 16 0.0287 18 0.1407 20 0.09486 23 0.2194 24 0.09642 26 0.03956 30 0.01868 44 0.02995 47 0.01067 49 0.00631 51 0.00647 55 0.00588 59 0.01226 67 0.00232 70 0.00402 77 0.00429 82 0.00311 96 0.00264 107 0.00178 137 0.00147 142 0.00089 143 0.00092 144 0.0008 181 0.00069 203 0.00095 209 0.00057 214 0.00051 216 0.00013 259 0.00021 267 0.00061 297 8e-05 301 0.00041 317 0.00078 328 0.00021 356 0.00014 371 0.00043 399 0.00016 413 0.00029 421 0.00073 440 0.00026                                                                                            
1685 142 1361 45 10 4.629 13 1.633 14 2.697 23 1.175 24 0.4408 27 0.2814 29 0.506 32 0.2211 34 0.2401 35 0.5206 37 0.4213 39 0.4017 43 0.2468 63 0.02773 70 0.00581 77 0.01383 80 0.00203 86 0.00416 88 0.0036 102 0.0018 105 0.00297 114 0.0009 129 0.00107 143 0.0009 157 0.00078 176 0.00083 185 0.00062 194 0.0004 213 0.00044 220 0.00016 234 0.00033 251 0.00022 252 0.00033 256 0.00042 302 0.00013 358 0.00018 361 0.00012 370 0.00045 382 3e-05 440 3e-05 456 0.00013 485 0.00048 491 1e-05 520 0.00023 577 0.00019                                                                                        
1686 143 1362 44 9 1.635 11 4.999 14 2.493 20 2.197 22 3.209 25 0.9749 31 3.956 39 0.6315 40 0.8078 43 1.255 44 1.277 49 0.02135 53 0.3995 59 0.1358 60 0.0294 61 0.06851 72 0.02256 73 0.03269 84 0.00562 92 0.00622 98 0.00379 100 0.00274 112 0.0009 119 0.00138 128 0.00148 130 0.00122 148 0.00051 162 0.00092 181 0.00081 187 0.00082 220 0.00053 223 0.00066 241 0.00073 244 0.00032 261 0.0007 308 0.00065 316 0.00046 324 0.00044 355 0.00016 372 0.0006 450 0.00053 459 0.00039 480 0.00017 558 0.00032                                                                                          
1687 144 1370 48 14 0.08718 18 0.0425 19 2.716 22 0.4211 30 0.1329 39 0.0576 45 0.2799 52 0.01462 54 0.07192 62 0.02441 71 0.02463 81 0.03946 99 0.02679 108 0.01562 116 0.01525 123 0.00946 136 0.00988 137 0.00646 185 0.00362 194 0.00901 198 0.00593 208 0.00413 217 0.00277 238 0.00211 245 0.00463 261 0.00244 262 0.00162 269 0.003 279 0.00157 290 0.00151 334 0.00169 335 0.00072 344 0.00144 345 0.00116 358 0.0012 364 0.00134 378 0.00111 390 0.001 419 0.0015 452 0.00071 467 0.00044 473 0.00059 494 0.00062 506 0.00057 549 0.00049 578 0.00036 594 0.00034 598 0.00041                                                                                  
1688 145 1371 48 12 0.01236 15 0.08946 18 0.0142 22 0.01131 23 0.01806 28 0.00543 30 0.00422 38 0.01168 40 0.00479 43 0.00387 48 0.00562 50 0.00239 58 0.00359 69 0.00224 82 0.0027 88 0.00271 91 0.00247 114 0.00106 115 0.00275 117 0.00228 123 0.00154 158 0.00213 173 0.00093 174 0.00124 181 0.00139 215 0.00121 237 0.00098 258 0.00074 260 0.00059 265 0.00136 289 0.00047 319 0.0007 339 0.00072 340 0.00058 344 0.00043 354 0.00121 384 0.0005 431 0.0006 457 0.00046 461 0.00075 475 0.00032 501 0.0004 530 0.00042 537 0.00027 538 0.00048 562 0.00038 576 0.00033 606 0.00044                                                                                  
1689 146 1372 45 29 0.04163 30 0.03936 35 0.01447 38 0.02592 47 0.0288 48 0.03138 49 0.00643 52 0.01001 56 0.00492 70 0.00452 76 0.00491 77 0.003 84 0.00292 86 0.00295 93 0.00342 97 0.00306 100 0.00211 108 0.00255 117 0.00181 127 0.00195 135 0.00181 153 0.00183 187 0.00149 222 0.00111 244 0.00124 252 0.00128 258 0.00082 261 0.00073 285 0.00113 304 0.00052 306 0.0006 309 0.00055 340 0.00068 357 0.00049 359 0.00066 362 0.00045 379 0.00072 392 0.00049 400 0.00049 407 0.0005 420 0.00044 431 0.00044 447 0.00046 460 0.0005 506 0.0005                                                                                        
1690 147 1380 47 9 7.568 10 3.915 11 8.185 16 3.921 18 6.633 20 0.9818 23 3.41 27 4.245 30 0.7537 32 1.573 33 0.6689 36 1.192 44 0.4199 48 0.4787 49 0.3685 54 0.1895 58 0.2472 64 0.2349 104 0.2834 116 0.1625 130 0.124 220 0.08076 244 0.06888 248 0.04741 250 0.1137 253 0.02104 282 0.03411 284 0.02852 285 0.05794 288 0.04686 316 0.02692 323 0.03713 324 0.01944 361 0.02834 436 0.01632 489 0.01106 505 0.01573 511 0.01219 532 0.00879 543 0.01247 558 0.00858 569 0.0073 594 0.00912 598 0.00507 618 0.0062 643 0.00347 666 0.00499                                                                                    
1691 148 1381 47 8 3.696 10 3.499 17 5.542 17 0.8417 18 3.806 21 1.327 34 5.594 35 1.878 36 2.021 43 1.186 49 3.205 52 0.4274 60 1.122 62 2.658 65 0.8816 87 1.618 95 0.6644 99 0.7797 106 0.5143 119 0.3475 125 0.8433 145 0.4295 166 0.3117 174 0.2169 178 0.3183 223 0.2018 227 0.06897 244 0.1055 246 0.1163 249 0.05647 292 0.07569 298 0.01284 318 0.03433 321 0.01255 333 0.02433 353 0.03298 376 0.01085 457 0.00835 492 0.01843 589 0.00491 610 0.01107 622 0.00855 623 0.01059 683 0.00437 684 0.00282 685 0.00342 733 0.00395                                                                                    
1692 149 1382 46 20 1.832 23 2.811 25 3.92 30 0.6344 31 3.285 41 1.902 44 0.3371 47 1.076 53 1.498 61 0.1999 62 0.1813 64 0.4406 79 1.984 83 0.4318 88 0.2983 92 0.0956 102 0.1309 107 0.5622 116 0.05857 132 0.05688 134 0.2034 141 0.01155 161 0.02425 174 0.02254 199 0.02503 204 0.01296 209 0.00589 222 0.01333 240 0.037 255 0.00759 281 0.02378 327 0.00464 370 0.00338 378 0.00423 381 0.00908 386 0.00251 413 0.0026 438 0.00145 456 0.00237 460 0.00203 563 0.00102 566 0.00083 578 0.00148 588 0.0012 607 0.00108 809 0.00236                                                                                      
1693 150 1383 49 14 3.531 15 1.678 19 6.498 20 2.224 21 1.863 28 2.989 29 0.8492 30 1.288 31 0.4159 35 0.3889 38 0.2176 42 0.3024 44 0.3406 49 0.1693 54 0.1386 64 0.07386 66 0.1151 68 0.08269 88 0.06096 89 0.03991 102 0.03226 106 0.03064 115 0.03053 117 0.03019 122 0.01733 141 0.01694 157 0.0167 185 0.016 189 0.01344 196 0.00988 222 0.01415 247 0.00907 279 0.00679 280 0.00977 327 0.00412 333 0.00356 398 0.00191 412 0.00256 488 0.00141 498 0.00161 527 0.00398 580 0.00139 582 0.00102 602 0.00376 645 0.00257 688 0.00245 700 0.00235 755 0.00235 848 0.00358                                                                                
1694 151 1390 45 19 4.282 22 1.111 25 3.343 26 5.571 32 4.348 33 0.6451 36 1.772 37 4.444 48 1.606 49 0.4239 50 0.505 57 0.7737 58 1.255 59 0.4444 70 0.5246 71 0.4228 74 0.103 82 0.3598 84 0.0876 92 0.09105 97 0.05822 116 0.05477 123 0.03594 133 0.03564 138 0.0307 173 0.01696 180 0.0163 181 0.01669 187 0.01704 199 0.01711 249 0.00859 286 0.00855 288 0.00852 290 0.00683 316 0.00551 323 0.00691 369 0.00402 454 0.00398 465 0.00343 471 0.00445 479 0.00128 543 0.00211 591 0.00209 601 0.00346 639 0.00306                                                                                        
1695 152 1391 47 15 3.805 20 2.504 21 4.727 22 2.753 26 1.907 28 2.344 29 2.922 30 2.6 38 1.671 39 1.103 41 2.119 43 0.931 51 1.683 52 0.9732 55 0.3307 71 0.08137 76 0.4865 78 0.1241 80 0.05152 90 0.0957 103 0.1089 104 0.03959 142 0.07323 146 0.02384 160 0.03963 169 0.04005 178 0.02888 200 0.01653 214 0.03013 219 0.02394 230 0.01872 274 0.01922 298 0.016 329 0.00885 351 0.00882 365 0.01051 411 0.00905 421 0.00604 446 0.00737 459 0.00695 524 0.00469 529 0.00593 592 0.00298 625 0.00415 636 0.00373 642 0.00325 663 0.00449                                                                                    
1696 153 1392 47 18 7.692 25 1.291 27 2.375 31 1.319 33 1.153 35 15.65 36 8.163 43 9.041 44 0.5405 46 3.75 47 1.186 48 1.816 59 0.6013 61 1.277 65 0.5906 66 0.547 68 0.7413 69 0.4059 84 0.4127 95 0.2082 97 0.1378 99 0.108 100 0.09403 101 0.06652 131 0.09343 144 0.05 156 0.04385 169 0.03554 182 0.02254 219 0.02294 236 0.00965 242 0.02164 251 0.01408 274 0.01059 292 0.01395 326 0.00658 360 0.00647 368 0.00421 426 0.00447 442 0.00512 450 0.00436 485 0.00201 486 0.00281 518 0.00392 553 0.00303 584 0.0027 620 0.00222                                                                                    
1698 161 1461 7 20 148 40 0.0955 60 0.00562 80 0.00135 100 0.00056 150 0.00018 300 5e-05                                                                                                                                                                    
1699 162 1462 6 40 1.15 60 0.0955 80 0.0214 100 0.00724 150 0.00126 300 0.00012                                                                                                                                                                      
1700 163 1463 7 20 631 40 31.6 60 0.0575 80 0.00794 100 0.00331 150 0.00093 300 0.00019                                                                                                                                                                    
1701 164 1464 7 20 165.9 40 33.9 60 0.158 80 0.0436 100 0.0209 150 0.00708 300 0.00178                                                                                                                                                                    
1702 165 1465 7 20 24 40 7.08 60 1.99 80 0.509 100 0.112 150 0.0219 300 0.00489                                                                                                                                                                    
1703 166 1466 7 20 204 40 170 60 49 80 4.17 100 0.631 150 0.0263 300 0.00209                                                                                                                                                                    
1704 167 1467 7 20 0.631 40 0.153 60 0.0616 80 0.038 100 0.0282 150 0.0186 300 0.011                                                                                                                                                                    
1705 171 1490 39 10 3.612 12 7.757 14 1.824 16 0.6462 19 6.378 20 1.388 24 0.8376 27 1.719 29 0.7753 37 0.4617 43 1.022 50 0.2685 51 0.507 67 0.15 86 0.07118 109 0.04421 111 0.187 121 0.03586 134 0.03178 163 0.113 169 0.01718 216 0.01047 218 0.04429 222 0.01071 239 0.01079 286 0.0228 298 0.00585 303 0.00668 347 0.01399 378 0.00506 408 0.01046 414 0.00464 434 0.0082 437 0.00294 556 0.00731 557 0.00208 576 0.0047 584 0.00336 604 0.00291                                                                                                    
1732 219 2160 5 3 2.608 13 2.544 28 1.468 52 0.287 105 0.041                                                                                                                                                                        
1733 220 2161 5 3 78.76 16 6.609 32 1.986 56 0.55 105 0.086                                                                                                                                                                        
1746 246 2220 19 0 60.42 5 53.25 6 51.73 12 51.77 13 50.2 18 50.16 34 45.97 79 39.06 80 28.44 97 23.44 114 16.61 116 9.694 120 6.751 126 5.33 129 4.782 130 3.91 141 2.158 147 1.896 161 0.535                                                                                                                                            
1747 247 2221 25 3 1250 4 1198 6 963.4 16 666.2 37 637.2 42 645.2 43 632.8 48 582.9 50 544.2 59 527.7 62 459.6 69 367.7 77 205.6 78 157.9 81 148.6 85 117.9 90 10.08 96 8.064 104 4.454 113 2.678 116 2.035 122 1.427 127 1.105 131 0.628 134 0.536                                                                                                                                
1748 252 2241 7 7 68.6 17 66.8 25 62.3 39 58 50 38.2 62 9.98 82 1.6                                                                                                                                                                    
1749 253 2242 11 2 203 5 209 10 209 16 207 23 206 31 127 38 29.5 47 8.97 58 2.22 72 0.965 94 0.15                                                                                                                                                            
1750 254 2243 10 2 134 6 135 12 135 24 132 36 129 40 51.4 42 35.1 50 11 60 3.93 74 0.888                                                                                                                                                              
1751 255 2250 5 2 7700 6 7530 6 5580 7 2030 10 1.108                                                                                                                                                                        
1752 256 2251 8 1 8740 3 8770 6 8310 6 4095 6 6790 7 335 9 11.2 10 1.21                                                                                                                                                                  
1754 258 2253 9 1 10500 2 10400 6 4570 6 1900 7 225 8 16.8 9 2.34 10 0.74 11 0.3099                                                                                                                                                                
1755 283 2320 10 7 0.293 44 0.0158 86 0.00777 98 0.00689 109 0.00743 127 0.00668 167 0.00582 207 0.00594 229 0.00544 421 0.00288                                                                                                                                                              
1756 284 2321 11 16 0.484 28 0.367 86 0.04 145 0.0372 154 0.0255 163 0.0221 174 0.0236 185 0.0229 200 0.0186 215 0.0182 223 0.0168                                                                                                                                                            
1757 289 2334 7 115 0.256 128 0.0907 145 0.0506 170 0.0267 257 0.0052 266 0.00421 346 0.00138                                                                                                                                                                    
1758 290 2340 11 15 0.351 20 0.148 25 0.0597 54 0.012 84 0.00625 87 0.0057 91 0.00508 184 0.00097 275 0.00046 322 0.00032 354 0.00028                                                                                                                                                            
1759 291 2341 9 8 1.18 50 0.022 58 0.0123 76 0.0469 87 0.0361 103 0.0239 227 0.00666 346 0.00385 452 0.00255                                                                                                                                                                
1760 292 2342 6 10 1.5 30 0.09 50 0.024 100 0.0041 300 0.00025 500 7e-05                                                                                                                                                                      
1761 293 2350 13 5 2.68 43 0.0353 82 0.0116 86 0.0109 91 0.00911 98 0.00885 122 0.00535 146 0.00428 155 0.00426 172 0.00368 185 0.00354 406 0.00134 421 0.00129                                                                                                                                                        
1762 294 2351 8 13 0.87 16 0.707 50 0.068 146 0.00726 282 0.0017 296 0.00156 349 0.00147 449 0.00071                                                                                                                                                                  
1763 295 2360 12 30 2.2 50 1.3 80 0.6 150 0.2 300 0.07 500 0.028 800 0.013 1500 0.005 3000 0.0025 5000 0.0013 8000 0.0009 15000 0.0004                                                                                                                                                          
1764 296 2361 5 30 0.056 40 0.03 50 0.012 100 0.005 300 0.001                                                                                                                                                                        
1765 297 2362 12 30 0.28 50 0.22 80 0.16 150 0.1 300 0.04 500 0.023 800 0.012 1500 0.0058 3000 0.002 5000 0.00087 8000 0.00063 15000 0.00024                                                                                                                                                          
1819 357 2471 5 10 10.3 20 2 30 0.46 50 0.11 100 0.04                                                                                                                                                                        
1820 358 2472 5 10 14.1 20 0.62 30 0.187 50 0.037 70 0.017                                                                                                                                                                        
1833 375 2560 7 5 1149 10 80.61 20 13.22 40 1.59 80 0.1443 160 0.00968 345 0.00034                                                                                                                                                                    
1834 376 2561 7 5 3024 10 362 20 14.17 40 0.5772 80 0.02428 160 0.00106 345 3e-05                                                                                                                                                                    
1835 377 2562 7 5 27650 10 1728 20 23.76 40 0.3931 80 0.00811 160 0.00021                                                                                                                                                                      
1836 378 2570 6 10 17.63 20 10.2 40 1.676 80 0.1158 160 0.01521 345 0.00363                                                                                                                                                                      
1837 379 2571 6 10 17.11 20 5.633 40 1.279 80 0.08562 160 0.01287 345 0.00294                                                                                                                                                                      
1838 380 2572 5 10 19.7 20 2.359 40 0.2125 80 0.01909 160 0.00432                                                                                                                                                                        
1839 381 2573 5 10 33.7 20 2.324 40 0.1918 80 0.01244 160 0.00225                                                                                                                                                                        
1844 388 2590 6 10 73.44 20 6.566 40 1.469 80 0.4061 160 0.09504 345 0.02246                                                                                                                                                                      
1845 389 2591 6 10 8.467 20 2.765 40 0.4579 80 0.1555 160 0.07171 345 0.02765                                                                                                                                                                      
1846 390 2592 6 10 1.296 20 0.4493 40 0.1469 80 0.06221 160 0.0216 345 0.00484                                                                                                                                                                      
1847 391 2593 5 10 0.9504 20 0.3197 40 0.08035 80 0.02765 160 0.01037                                                                                                                                                                        
1848 393 2601 6 5 5.754 10 3.067 20 2.739 40 0.4873 80 0.08899 160 0.01382                                                                                                                                                                      
1849 394 2602 6 5 13.39 10 6.54 20 1.46 40 0.2696 80 0.05676 160 0.02488                                                                                                                                                                      
1851 396 2604 6 5 3.283 10 2.376 20 0.3188 40 0.1089 80 0.01935 160 0.01115                                                                                                                                                                      
1853 398 2610 6 5 14.69 10 11.23 20 6.912 40 2.765 80 0.2419 160 0.01296                                                                                                                                                                      
1854 400 2612 7 5 7.517 10 3.542 20 1.814 40 0.5616 80 0.1037 160 0.04147 345 0.01037                                                                                                                                                                    
1857 403 2620 5 5 2.246 10 0.7517 20 0.4838 40 0.1469 80 0.06653                                                                                                                                                                        
1858 404 2621 5 5 0.6826 10 0.3715 20 0.1296 40 0.05962 80 0.03024                                                                                                                                                                        
1859 405 2622 5 5 0.4406 10 0.09504 20 0.0648 40 0.02074 80 0.00769                                                                                                                                                                        
1860 406 2630 5 10 10.37 20 4.838 40 0.8035 80 0.2765 160 0.07517                                                                                                                                                                        
1861 407 2631 5 10 21.6 20 1.642 40 0.7517 80 0.1123 160 0.04838                                                                                                                                                                        
1862 408 2640 6 10 10.37 20 8.208 40 6.998 80 5.443 160 2.265 345 0.251                                                                                                                                                                      
1863 409 2641 5 10 84.67 20 21.6 40 6.221 80 0.4666 160 0.1382                                                                                                                                                                        
1864 410 2642 5 10 52.7 20 11.23 40 4.406 80 0.1728 160 0.07517                                                                                                                                                                        
1865 411 2650 6 10 2.419 20 1.296 40 0.5443 80 0.08554 160 0.01296 345 0.00475                                                                                                                                                                      
1866 412 2651 6 10 1.296 20 0.6134 40 0.1728 80 0.0432 160 0.01555 345 0.0038                                                                                                                                                                      
1867 413 2652 5 10 0.7949 20 0.4579 40 0.1123 80 0.02333 160 0.00631                                                                                                                                                                        
1868 414 2653 5 10 10.37 20 4.752 40 0.4666 80 0.03542 160 0.00579                                                                                                                                                                        
1869 415 2660 5 10 1.469 20 0.1296 40 0.01642 80 0.00475 160 0.00251                                                                                                                                                                        
1870 417 2670 5 20 0.3802 40 0.3974 80 0.2851 160 0.1642 345 0.04147                                                                                                                                                                        
1871 418 2671 6 10 0.8208 20 0.7258 40 0.4406 80 0.3715 160 0.1728 345 0.03888                                                                                                                                                                      
1872 420 2680 6 10 76.03 20 6.566 40 1.037 80 0.4752 160 0.08035 345 0.00674                                                                                                                                                                      
1873 421 2681 5 10 8.294 20 1.987 40 0.6221 80 0.1642 160 0.04752                                                                                                                                                                        
1874 422 2682 5 10 3.974 20 0.769 40 0.3974 80 0.08467 160 0.01987                                                                                                                                                                        
1875 423 2683 6 10 2.506 20 0.9504 40 0.3802 80 0.04579 160 0.02678 345 0.02333                                                                                                                                                                      
1876 428 2710 6 5 31.97 10 6.221 20 1.469 40 0.4579 80 0.0864 160 0.01555                                                                                                                                                                      
1877 429 2711 6 5 6.221 10 1.987 20 0.4579 40 0.04406 80 0.00864 160 0.00268                                                                                                                                                                      
1878 430 2712 6 5 3.888 10 2.851 20 0.2678 40 0.00829 80 0.00467 160 0.00251                                                                                                                                                                      
1879 431 2713 6 5 7.258 10 2.678 20 0.6394 40 0.04406 80 0.02592 160 0.02246                                                                                                                                                                      
1880 432 2720 7 5 32.83 10 19.87 20 13.82 40 7.949 80 0.2851 160 0.0432 345 0.00613                                                                                                                                                                    
1881 433 2721 6 5 19.01 10 9.504 20 0.648 40 0.1901 80 0.04234 160 0.01296                                                                                                                                                                      
1882 434 2722 6 5 6.912 10 4.147 20 0.5875 40 0.1814 80 0.0864 160 0.03456                                                                                                                                                                      
1884 439 2740 6 5 198.7 10 95.04 20 49.25 40 11.23 80 2.765 160 1.296                                                                                                                                                                      
1885 440 2741 6 5 388.8 10 172.8 20 42.34 40 16.42 80 4.666 160 0.8381                                                                                                                                                                      
1886 441 2742 6 5 302.4 10 224.6 20 65.66 40 31.1 80 4.838 160 3.542                                                                                                                                                                      
1887 442 2743 6 5 78.62 10 48.38 20 20.74 40 11.23 80 4.579 160 2.506                                                                                                                                                                      
1888 443 2750 6 5 12.96 10 9.504 20 5.011 40 1.123 80 0.1642 160 0.02074                                                                                                                                                                      
1889 444 2751 7 5 25.06 10 18.14 20 5.53 40 0.6912 80 0.06826 160 0.01469 345 0.00544                                                                                                                                                                    
1892 447 2760 6 5 9.504 10 5.875 20 0.5875 40 0.02851 80 0.00328 160 0.00138                                                                                                                                                                      
1893 448 2761 6 5 4.234 10 1.728 20 0.4838 40 0.07085 80 0.0095 160 0.00302                                                                                                                                                                      
1894 449 2762 5 5 10.37 10 7.43 20 3.283 40 0.6912 80 0.03283                                                                                                                                                                        
1895 450 2763 6 5 138.2 10 50.98 20 47.52 40 9.504 80 0.1901 160 0.00415                                                                                                                                                                      
1896 451 2764 6 5 18.14 10 15.55 20 7.085 40 2.592 80 0.9504 160 0.03197                                                                                                                                                                      
1897 452 2765 6 5 11.23 10 5.789 20 1.728 40 1.037 80 0.2333 160 0.02246                                                                                                                                                                      
1905 468 3101 7 10 0.11 25 0.086 50 0.054 100 0.041 200 0.011 400 0.0041 600 0.0022                                                                                                                                                                    
1906 469 3102 7 10 0.11 25 0.086 50 0.054 100 0.041 200 0.011 400 0.0041 600 0.0022                                                                                                                                                                    
1907 470 3103 7 10 0.086 25 0.042 50 0.017 100 0.011 200 0.0043 400 0.0017 600 0.0015                                                                                                                                                                    
1908 471 3110 7 10 0.086 25 0.046 50 0.028 100 0.011 200 0.0042 400 0.0025 600 0.0011                                                                                                                                                                    
1909 472 3111 7 10 0.086 25 0.046 50 0.028 100 0.011 200 0.0042 400 0.0025 600 0.0011                                                                                                                                                                    
1910 473 3112 7 10 0.0431 25 0.0356 50 0.0154 100 0.0067 200 0.0035 400 0.0022 600 0.0016                                                                                                                                                                    
1911 474 3113 7 10 0.055 25 0.032 50 0.018 100 0.0091 200 0.0038 400 0.0019 600 0.0015                                                                                                                                                                    
1912 475 3120 11 0 4.21 102 1.09 142 0.41 315 0.0785 547 0.0245 952 0.0074 1530 0.0022 2310 0.001 3300 0.0006 3860 0.0004 5060 0.0002                                                                                                                                                            
1913 476 3130 55 43 5.76 50 3.12 55 1.896 59 1.32 62 1.008 66 0.792 69 0.624 71 0.528 74 0.456 76 0.384 78 0.336 80 0.288 82 0.264 84 0.2376 85 0.216 87 0.1968 89 0.18 90 0.1656 92 0.1536 93 0.1416 94 0.132 96 0.1224 97 0.1152 98 0.108 99 0.1032 100 0.096 101 0.0912 102 0.0864 103 0.0816 104 0.0792 105 0.0744 106 0.072 107 0.0696 108 0.0648 109 0.0624 110 0.06 111 0.0576 112 0.0528 112 0.0552 137 0.0192 163 0.00744 180 0.00432 192 0.00288 202 0.00221 210 0.00175 217 0.00144 223 0.00122 228 0.00108 233 0.00094 237 0.00084 241 0.00077 283 0.00029 304 0.0002 317 0.00016 327 0.00015                                                                    
1914 477 3131 40 48 7.68 69 1.344 83 0.576 95 0.336 105 0.2184 114 0.156 122 0.1152 130 0.0912 138 0.072 145 0.06 152 0.0504 159 0.0408 166 0.036 172 0.0312 179 0.0264 185 0.024 191 0.02136 197 0.0192 203 0.01728 209 0.0156 215 0.01416 221 0.01296 226 0.01176 232 0.0108 238 0.00984 243 0.00912 249 0.0084 255 0.00792 260 0.0072 266 0.00672 272 0.00648 277 0.006 283 0.00552 288 0.00528 294 0.0048 300 0.00456 305 0.00432 311 0.00408 316 0.00384 322 0.0036                                                                                                  
1917 483 3142 47 61 0.432 63 0.36 65 0.312 67 0.264 69 0.2256 70 0.1992 72 0.1776 74 0.1608 75 0.144 76 0.132 78 0.12 79 0.1104 80 0.1032 82 0.096 83 0.0888 84 0.0816 85 0.0768 86 0.072 87 0.0696 88 0.0648 89 0.06 90 0.0576 91 0.0552 92 0.0528 93 0.0504 94 0.048 95 0.0456 96 0.0432 97 0.0408 98 0.0408 98 0.0384 99 0.036 100 0.036 126 0.012 158 0.00408 182 0.00228 202 0.00146 219 0.00106 235 0.00079 249 0.00062 263 0.00053 275 0.00043 287 0.00036 298 0.00031 309 0.00029 320 0.00024 468 7e-05                                                                                    
1919 485 3144 14 83 0.01632 94 0.0096 104 0.00624 113 0.00432 122 0.00312 131 0.0024 138 0.0019 146 0.00154 153 0.00125 160 0.00106 166 0.00089 250 0.00018 314 8e-05 364 5e-05                                                                                                                                                      
1922 488 3152 50 60 1.704 68 1.056 75 0.72 81 0.528 87 0.408 92 0.312 97 0.264 102 0.2184 106 0.1872 110 0.1608 114 0.1392 117 0.1248 121 0.1104 124 0.0984 127 0.0888 130 0.0816 133 0.0744 136 0.0672 139 0.0624 142 0.0576 144 0.0552 147 0.0504 149 0.048 152 0.0432 154 0.0408 157 0.0384 159 0.036 161 0.036 163 0.0336 165 0.0312 167 0.0288 169 0.0288 171 0.0264 173 0.0264 175 0.024 177 0.02376 179 0.0228 180 0.02184 182 0.02112 237 0.00696 302 0.0024 344 0.00139 377 0.00094 403 0.0007 425 0.00055 444 0.00046 460 0.00038 475 0.00034 489 0.00029 501 0.00026                                                                              
1924 490 3154 21 100 0.0936 101 0.0888 103 0.084 104 0.0792 106 0.0744 107 0.072 109 0.0672 110 0.0648 113 0.06 115 0.0552 203 0.00576 233 0.00312 255 0.00209 287 0.00122 299 0.00101 309 0.00086 318 0.00074 326 0.00067 333 0.0006 339 0.00055 403 0.00029                                                                                                                                        
1925 491 3155 20 52 3.6 68 1.608 84 0.864 101 0.504 118 0.312 136 0.2184 154 0.1536 173 0.1104 193 0.0816 214 0.0624 236 0.048 259 0.0384 283 0.0288 309 0.02376 336 0.0192 364 0.0156 394 0.01272 426 0.01032 461 0.00864 497 0.0072                                                                                                                                          
1927 493 3161 7 188 0.132 216 0.0864 248 0.0576 286 0.0384 333 0.024 393 0.01584 472 0.0096                                                                                                                                                                    
1928 494 3162 24 60 4.56 72 2.184 83 1.224 94 0.768 105 0.504 116 0.36 127 0.264 138 0.1896 150 0.144 162 0.1104 174 0.0864 188 0.0672 202 0.0528 217 0.0432 233 0.0336 250 0.0288 268 0.02232 288 0.018 310 0.01464 334 0.01176 360 0.0096 390 0.00768 423 0.00624 461 0.0048                                                                                                                                  
1929 495 3163 55 73 1.632 76 1.224 79 0.96 81 0.792 84 0.648 86 0.552 88 0.48 90 0.408 91 0.36 93 0.336 94 0.288 96 0.264 97 0.24 98 0.2208 100 0.204 101 0.1872 102 0.1752 103 0.1632 104 0.1512 105 0.1416 106 0.132 107 0.1248 108 0.1176 109 0.1128 110 0.1056 111 0.1008 112 0.096 113 0.0912 114 0.084 114 0.0864 115 0.0792 116 0.0768 117 0.0696 117 0.072 118 0.0672 119 0.0624 119 0.0648 120 0.06 121 0.0576 121 0.0552 142 0.0204 166 0.00744 183 0.00408 195 0.00288 206 0.00202 215 0.00156 223 0.00125 230 0.00103 237 0.00089 243 0.00077 249 0.00067 254 0.0006 259 0.00053 318 0.00019 357 0.00012                                                                    
1933 499 3171 11 206 0.1008 225 0.0816 246 0.0648 268 0.0528 292 0.0432 318 0.036 346 0.0288 377 0.024 410 0.0202 446 0.0168 485 0.0139                                                                                                                                                            
1934 500 3172 50 95 0.0624 97 0.06 99 0.0576 102 0.0552 105 0.0504 108 0.048 111 0.0456 115 0.042 119 0.0408 123 0.0384 128 0.036 133 0.0336 139 0.0288 145 0.0264 152 0.0226 155 0.0216 157 0.0206 159 0.0197 162 0.019 164 0.018 167 0.0173 169 0.0166 172 0.0158 174 0.0151 177 0.0144 180 0.0137 183 0.013 186 0.0125 189 0.0118 192 0.0113 195 0.0108 198 0.0103 202 0.0098 205 0.0094 209 0.0089 212 0.0084 216 0.0079 220 0.0077 224 0.0072 228 0.007 232 0.0065 237 0.0062 241 0.0058 246 0.0055 251 0.0053 256 0.005 261 0.0046 267 0.0043 273 0.0041 279 0.0038                                                                              
1940 506 3182 15 65 0.0504 77 0.0187 87 0.0103 96 0.0067 103 0.0048 110 0.0036 117 0.0029 123 0.0023 129 0.0019 135 0.0016 141 0.0013 147 0.0012 153 0.001 264 0.0002 447 6e-05                                                                                                                                                    
1951 518 3204 16 61 0.0228 71 0.012 79 0.0077 87 0.0055 93 0.0041 99 0.0034 105 0.0026 110 0.0023 115 0.002 119 0.0017 124 0.0015 128 0.0014 192 0.0004 245 0.0002 293 0.00015 340 0.00012                                                                                                                                                  
2000 575 3340 35 0 65.32 3 47.13 7 40.09 8 11.94 9 27.51 11 9.195 12 9.917 13 9.925 14 12.6 15 7.088 16 16.65 18 7.832 19 7.162 20 2.499 21 4.947 22 5.543 23 2.836 24 5.952 27 2.585 28 0.812 31 1.829 32 1.6 33 1.191 34 1.875 35 0.665 36 0.224 39 0.36 41 0.274 42 0.308 47 0.096 54 0.26 56 0.364 58 0.055 70 0.095 78 0.129                                                                                                            
2001 583 3380 18 11 2.19 19 1.28 29 0.789 40 0.419 55 0.238 73 0.145 125 0.049 220 0.0155 400 0.0058 600 0.0033 900 0.002 1180 0.0012 1520 0.0007 1920 0.0005 2520 0.0002 3800 0.0001                                                                                                                                                  
2003 585 3390 15 9 5.93 12 3.36 17 2.36 23 1.45 31 0.881 41 0.562 68 0.234 107 0.0939 165 0.0351 271 0.0117 455 0.0045 730 0.0024 1000 0.0012 1300 0.0006 1670 0.0003                                                                                                                                                    
2005 587 3392 13 11 0.321 27 0.148 50 0.0837 83 0.0416 140 0.0187 316 0.00756 550 0.00334 880 0.00134 1500 0.00052 2450 0.000227 4000 0.000115 7500 4e-05 14700 1.88e-05                                                                                                                                                        
2006 588 3393 10 10 0.384 28 0.0988 74 0.0293 160 0.0137 288 0.00704 640 0.00315 1250 0.00085 2950 0.000206 6300 0.000101 10600 6e-05                                                                                                                                                              
2007 589 3395 15 10 0.201 15 0.17 37 0.134 65 0.0907 102 0.0586 152 0.052 270 0.0265 615 0.0125 1020 0.00532 1700 0.00262 2500 0.00154 3400 0.00095 4600 0.00051 6300 0.000203 9500 8e-05                                                                                                                                                    
2008 590 4000 14 0 99.67 9 12.95 18 6.14 28 2.69 218 0.0231 271 0.0071 348 0.0039 463 0.0026 643 0.0019 934 0.0012 1456 0.0004                                                                                                                                                            
2010 592 4010 31 0 50.9 13 12.17 52 1.23 79 0.1375 81 0.1747 83 0.1617 84 0.1198 86 0.09274 87 0.09009 88 0.08893 90 0.07965 92 0.06464 94 0.04934 97 0.03677 100 0.02724 105 0.02019 111 0.01506 118 0.01132 128 0.00856 141 0.00648 157 0.00491 179 0.00371 210 0.00273 253 0.00098 326 0.00098 479 0.00046 844 0.00019 1847 6e-05 5604 1e-05                                                                                                                        
2011 593 4011 24 0 18.73 15 2.198 42 0.837 44 0.34 77 0.5547 82 0.4124 86 0.3113 90 0.1382 94 0.0923 99 0.0834 104 0.0658 110 0.0467 117 0.0312 126 0.0202 137 0.0129 152 0.0084 171 0.0057 198 0.0041 233 0.003 283 0.0022 354 0.0015 460 0.001 624 0.0006 888 0.0004                                                                                                                                  
2012 594 4020 13 0 214.2 16 22.9 30 22.3 39 5.5 189 0.0964 225 0.0286 278 0.0134 361 0.0067 495 0.0034 724 0.0015 1138 0.0005 2545 0.0001                                                                                                                                                          
2013 595 4021 15 0 163.8 10 25.23 35 8.87 43 5.3 154 0.1549 173 0.0471 200 0.02 239 0.0131 297 0.0095 391 0.0062 561 0.0031 1031 0.001 3342 0.0001                                                                                                                                                        
2015 597 4031 32 0 3.89 6 0.65 33 0.298 43 0.07 85 0.0401 100 0.0278 113 0.0232 127 0.0184 143 0.0129 163 0.0083 187 0.005 215 0.003 250 0.0019 292 0.0014 344 0.0011 408 0.0009 490 0.0007 593 0.0006 728 0.0004 906 0.0003 1143 0.0002 1464 0.0002 1908 0.0001 2531 0.0001                                                                                                                                  
2016 598 4032 31 0 217.5 10 2.655 14 1.258 25 0.0542 25 0.347 38 0.0323 56 0.0271 78 0.0253 99 0.0247 119 0.0236 138 0.0208 157 0.016 179 0.0109 209 0.0075 245 0.0057 289 0.0047 338 0.0039 394 0.0032 459 0.0025 536 0.002 631 0.0015 752 0.0011 909 0.0007 1120 0.0005 1412 0.0003 1829 0.0002 2442 0.0001 3323 0.0001 4467 0.0001                                                                                                                        
2017 599 4033 35 0 142.6 2 0.709 4 0.303 14 0.089 20 0.1048 41 0.017 80 0.0072 164 0.0031 243 0.002 381 0.0011 552 0.0009 744 0.0008 956 0.0007 1201 0.0006 1493 0.0004 1843 0.0004 2267 0.0003 2783 0.0002 3422 0.0002 4223 0.0001 5243 0.0001 6552 0.0001 8247 0.0001 10460 0.0001                                                                                                                                  
2018 600 4040 32 0 441.7 11 20.4 52 0.124 307 0.0224 382 0.0187 453 0.0158 515 0.0136 572 0.0119 628 0.0106 688 0.0091 755 0.0076 832 0.0062 922 0.0049 1029 0.0038 1158 0.0028 1316 0.0021 1513 0.0015 1761 0.0011 2081 0.0007 2498 0.0005 3053 0.0003 3805 0.0002 4858 0.0001 6384 0.0001                                                                                                                                  
2019 601 4041 33 0 6.52 13 1.89 30 0.682 35 0.18 43 0.09 46 0.5681 67 0.3667 94 0.2306 125 0.157 161 0.111 199 0.0772 239 0.0529 279 0.0365 319 0.0276 356 0.0248 391 0.0245 424 0.0241 454 0.023 485 0.021 516 0.0181 549 0.0146 587 0.011 634 0.0079 692 0.0054 767 0.0036 868 0.0023 1003 0.0014 1192 0.0009 1458 0.0005 1846 0.0003 2425 0.0001 3319 0.0001                                                                                                                  
2020 602 4042 29 0 125.1 10 7.11 49 0.23 232 0.0186 308 0.0153 384 0.0145 456 0.0144 521 0.0146 580 0.0144 635 0.0134 690 0.0124 740 0.0123 782 0.0127 819 0.0108 866 0.0068 938 0.0044 1033 0.0034 1140 0.0027 1259 0.0022 1403 0.0016 1586 0.0011 1833 0.0007 2179 0.0005 2686 0.0003 3437 0.0002 4546 0.0001 6178 0.0001 8577 0.0001                                                                                                                          
2021 603 4043 29 0 122.7 9 2.61 89 0.0514 144 0.0243 213 0.0108 289 0.0082 369 0.0073 446 0.0066 521 0.0061 597 0.0055 677 0.0049 766 0.0042 863 0.0036 971 0.003 1094 0.0024 1235 0.0019 1400 0.0014 1597 0.0011 1836 0.0008 2131 0.0005 2501 0.0004 2974 0.0002 3590 0.0002 4407 0.0001 5509 0.0001                                                                                                                                
2022 604 4050 21 0 97.76 11 80.12 30 2.59 105 0.6677 110 0.3891 117 0.2301 128 0.1393 142 0.0832 162 0.0483 191 0.0274 233 0.0152 296 0.0084 393 0.0046 548 0.0025 806 0.0012 1307 0.0005 2879 0.0001                                                                                                                                                
2023 605 4051 13 0 317.1 18 18.35 45 6.43 237 0.0974 284 0.007 362 0.0041 499 0.0022 759 0.0011 1298 0.0006 2544 0.0002 6308 0.0001                                                                                                                                                            
2024 606 4052 17 0 117.5 11 98.8 39 1.76 43 0.91 87 0.8752 92 0.9178 96 0.5768 98 0.3578 100 0.2826 102 0.2772 104 0.2289 105 0.1532 107 0.0866 110 0.0431 114 0.0188 119 0.0064 127 0.0007                                                                                                                                                
2025 607 4060 25 0 3.29 15 0.27 71 0.17 74 0.055 137 0.136 149 0.0382 162 0.0258 176 0.0221 190 0.0195 205 0.0164 220 0.0132 237 0.0102 255 0.0074 276 0.005 302 0.0032 336 0.0021 379 0.0015 439 0.0011 523 0.0008 642 0.0006 818 0.0004 1087 0.0003 1511 0.0001                                                                                                                                    
2026 608 4061 20 0 30.92 15 17.6 53 0.45 101 0.5033 104 0.4446 108 0.3495 113 0.257 120 0.1831 129 0.1283 142 0.089 160 0.061 186 0.0407 223 0.0262 282 0.0162 374 0.0097 529 0.0053 826 0.002 1984 0.0004                                                                                                                                              
2027 609 4062 19 0 13.03 4 3.69 49 0.16 59 0.06 144 0.0544 155 0.0346 167 0.0239 182 0.0136 202 0.0079 228 0.0053 264 0.0037 315 0.0024 390 0.0015 503 0.0009 680 0.0006 968 0.0003 1459 0.0002 2488 0.0001                                                                                                                                              
2028 610 4070 32 0 4.02 4 2.11 23 0.65 32 0.39 88 0.1147 121 0.1037 160 0.0768 185 0.0759 212 0.0595 251 0.037 292 0.0254 330 0.0175 372 0.0126 419 0.0103 471 0.0086 528 0.0072 588 0.0061 652 0.0052 718 0.0044 788 0.0036 865 0.0028 954 0.0021 1060 0.0015 1192 0.001 1361 0.0007 1584 0.0005 1890 0.0003 2333 0.0002 3000 0.0001 4056 0.0001 5822 0.0001                                                                                                                    
2029 611 4071 31 0 52.4 7 1.43 11 0.53 14 0.37 133 0.0267 184 0.0213 238 0.017 295 0.013 358 0.0094 429 0.0066 509 0.005 591 0.0044 670 0.0046 736 0.0049 801 0.0041 888 0.0029 1006 0.0023 1124 0.0023 1230 0.0021 1352 0.0016 1515 0.0011 1730 0.0008 2017 0.0005 2400 0.0004 2916 0.0002 3623 0.0002 4613 0.0001 6033 0.0001                                                                                                                          
2030 612 4080 33 0 304.1 11 2.35 15 0.14 15 0.25 50 0.0881 80 0.0439 120 0.0253 173 0.019 239 0.0157 318 0.0124 407 0.01 505 0.0083 607 0.0072 711 0.0063 815 0.0056 918 0.0048 1022 0.0041 1128 0.0033 1241 0.0026 1365 0.0019 1509 0.0014 1685 0.001 1907 0.0007 2197 0.0005 2591 0.0004 3138 0.0002 3920 0.0002 5059 0.0001 6738 0.0001                                                                                                                        
2031 613 4081 32 0 80.85 9 1.94 10 0.62 15 0.4194 29 0.2231 33 0.019 50 0.1314 80 0.0902 122 0.0484 175 0.0245 241 0.0146 317 0.0108 403 0.0092 495 0.0081 592 0.0072 692 0.0064 795 0.0056 902 0.0048 1014 0.004 1134 0.0033 1264 0.0026 1411 0.0019 1583 0.0014 1790 0.0009 2049 0.0006 2382 0.0004 2821 0.0002 3417 0.0001 4233 0.0001                                                                                                                        
2032 614 4082 38 0 139.8 5 1.95 16 0.31 28 0.06 34 0.0747 63 0.0423 103 0.0303 147 0.0229 192 0.0192 234 0.0176 272 0.0153 312 0.0114 358 0.0078 413 0.0053 479 0.0039 558 0.003 656 0.0024 776 0.0019 925 0.0014 1111 0.0011 1347 0.0008 1647 0.0006 2035 0.0005 2542 0.0003 3216 0.0002 4124 0.0002 5371 0.0001 7114 0.0001                                                                                                                          
2033 615 4090 29 0 6.7 7 4.27 23 1.51 25 0.4 150 0.0298 218 0.0413 294 0.0363 376 0.0214 457 0.0141 532 0.0141 598 0.0145 655 0.015 702 0.0149 744 0.014 783 0.0122 821 0.0098 862 0.0074 909 0.0054 968 0.0039 1044 0.0029 1146 0.0021 1285 0.0014 1479 0.0009 1752 0.0006 2147 0.0003 2733 0.0002 3626 0.0001                                                                                                                            
2034 616 4091 29 0 1209 6 4.16 8 0.1914 14 0.1321 20 1.55 23 0.0861 28 0.267 37 0.0491 61 0.0239 97 0.0146 134 0.0112 182 0.0091 227 0.0089 280 0.0073 342 0.0061 411 0.0053 486 0.0048 562 0.0044 641 0.004 723 0.0035 810 0.003 907 0.0025 1020 0.002 1157 0.0015 1332 0.0011 1562 0.0008 1876 0.0005 2327 0.0004 3076 0.0002                                                                                                                        
2035 617 4092 34 0 858.7 7 1.3 13 0.67 22 0.1042 32 0.046 41 0.0728 71 0.0469 117 0.0289 182 0.0181 261 0.0122 345 0.0093 417 0.0082 474 0.0081 521 0.0081 570 0.0071 625 0.0057 691 0.0045 770 0.0034 867 0.0026 986 0.0019 1136 0.0013 1327 0.0009 1575 0.0006 1901 0.0004 2338 0.0003 2933 0.0002 3760 0.0001 4933 0.0001                                                                                                                          
2036 618 4100 36 0 37.3 1 3.19 9 0.81 14 0.39 96 0.0509 155 0.0212 225 0.011 311 0.0072 432 0.0053 562 0.0046 686 0.0043 798 0.0044 886 0.0043 986 0.0027 1187 0.0017 1452 0.0014 1736 0.0012 2117 0.0009 2597 0.0007 3129 0.0006 3823 0.0004 4917 0.0003 6657 0.0002 9245 0.0001 12890 0.0001 18000 0.0001                                                                                                                              
2037 619 4101 35 0 12.4 13 3.5 15 0.16 20 0.08 73 0.0549 126 0.0151 205 0.0071 318 0.0045 472 0.0029 674 0.0018 934 0.0011 1259 0.0007 1655 0.0005 2130 0.0004 2689 0.0004 3344 0.0003 4106 0.0003 4994 0.0002 6037 0.0002 7274 0.0002 8762 0.0001 10590 0.0001 12870 0.0001 15780 0.0001 19580 0.0001                                                                                                                                
2038 620 4102 34 0 72.9 4 1.46 14 0.2 15 0.13 97 0.0983 156 0.0565 246 0.041 378 0.0202 567 0.0082 829 0.0041 1183 0.0022 1653 0.0014 2266 0.001 3054 0.0007 4057 0.0004 5324 0.0003 6918 0.0002 8924 0.0001 11450 0.0001 14660 0.0001                                                                                                                                          
2039 621 4110 34 0 687.7 8 2.05 21 0.34 23 0.23 36 0.1671 66 0.1451 110 0.1116 177 0.0728 285 0.0392 462 0.0218 639 0.0214 720 0.0297 809 0.0225 922 0.0162 1058 0.0123 1208 0.01 1361 0.009 1497 0.0089 1610 0.0088 1714 0.0076 1830 0.0054 1986 0.0035 2222 0.0023 2586 0.0015 3131 0.001 3933 0.0007 5117 0.0004 6881 0.0003 9542 0.0001 13620 0.0001                                                                                                                      
2040 622 4111 33 0 2.5 2 0.14 4 0.14 15 0.07 41 0.0526 96 0.0185 191 0.0083 329 0.0051 508 0.0038 721 0.0031 959 0.0026 1204 0.0023 1443 0.0021 1668 0.002 1879 0.0019 2086 0.0017 2303 0.0015 2557 0.0012 2884 0.0008 3339 0.0006 3989 0.0004 4915 0.0002 6236 0.0002 8140 0.0001 10920 0.0001                                                                                                                                
2041 623 4112 35 0 16.8 11 4.7 24 0.37 29 0.35 36 0.4079 49 0.1207 64 0.07 79 0.0534 91 0.0557 101 0.0606 108 0.0599 115 0.0477 123 0.031 135 0.0187 156 0.0114 187 0.0072 232 0.0048 296 0.0033 382 0.0023 497 0.0016 648 0.0011 849 0.0007 1120 0.0005 1486 0.0003 1990 0.0002 2690 0.0001 3678 0.0001                                                                                                                            
2042 624 4120 30 0 2688 3 1.07 6 0.48 10 0.3 11 3.79 806 0.0148 991 0.0064 1180 0.0031 1376 0.0016 1584 0.001 1818 0.0007 2101 0.0006 2462 0.0005 2926 0.0004 3522 0.0003 4291 0.0002 5288 0.0002 6585 0.0002 8279 0.0001 10500 0.0001 13420 0.0001 17260 0.0001                                                                                                                                      
2043 625 4121 27 0 59.7 11 0.73 12 6.3 15 0.64 20 0.33 401 0.0142 560 0.0102 706 0.0038 860 0.0019 1034 0.0016 1220 0.0013 1409 0.001 1586 0.0009 1740 0.0008 1869 0.0009 1981 0.0009 2085 0.0009 2195 0.0007 2327 0.0006 2502 0.0004 2749 0.0003 3105 0.0002 3652 0.0001 4688 0.0001                                                                                                                                  
2044 626 4130 31 0 63.1 5 19.7 35 6 42 1.2 162 0.3003 180 0.2206 199 0.1068 227 0.0691 252 0.0874 261 0.0812 283 0.0261 335 0.014 391 0.0145 428 0.0187 462 0.0153 514 0.0088 605 0.0057 719 0.0045 849 0.003 1069 0.0022 1287 0.0016 1663 0.0008 2384 0.0004 3717 0.0002                                                                                                                                  
2045 627 4131 28 0 6.7 1 2.9 7 1.2 7 0.5 133 0.1856 144 0.0406 154 0.0388 162 0.0458 171 0.0475 179 0.0432 189 0.0354 202 0.028 218 0.0224 237 0.0182 261 0.0149 289 0.0122 324 0.0099 365 0.0081 414 0.0066 473 0.0053 543 0.0043 626 0.0035 726 0.0029 844 0.0022 1008 0.0013 1330 0.0006 2103 0.0002                                                                                                                            
2046 628 4132 28 0 79.8 5 64.4 42 8.3 45 3.6 97 0.4741 102 0.456 108 0.4619 113 0.507 118 0.5276 123 0.6617 125 2.722 126 2.087 128 0.4915 135 0.3062 142 0.3501 147 0.4784 151 0.4275 157 0.2005 171 0.0855 204 0.0406 266 0.0217 371 0.0103 625 0.0041 1206 0.0017 2547 0.0004                                                                                                                                
2047 629 4140 25 0 475.6 13 90.45 26 0.97 29 0.76 104 0.4399 112 0.3053 122 0.2083 134 0.1401 149 0.0933 167 0.0623 189 0.0424 218 0.0302 253 0.0227 299 0.0173 358 0.013 434 0.0097 535 0.0072 670 0.0052 852 0.0037 1104 0.0023 1567 0.001 2946 0.0003 8928 0.0001                                                                                                                                    
2048 630 4141 32 0 322.6 10 301.3 34 1.24 40 0.94 50 2.685 54 2.166 58 1.694 63 1.192 68 0.799 73 0.6031 78 0.5193 84 0.4458 91 0.3714 99 0.3006 107 0.2363 117 0.181 129 0.1354 143 0.0992 160 0.0715 181 0.0509 207 0.036 241 0.0253 283 0.0175 339 0.0118 412 0.0079 511 0.0051 646 0.0032 850 0.0017 1242 0.0007 2160 0.0002                                                                                                                      
2049 631 4142 29 0 153.1 8 76.4 47 1.67 52 1.27 56 0.9968 60 1.196 63 1.233 66 1.513 68 1.628 70 1.673 72 1.62 74 1.399 76 1.094 80 0.8339 84 0.664 89 0.5605 95 0.4975 100 0.4654 106 0.4656 111 0.4693 116 0.3197 125 0.1438 143 0.0612 184 0.0276 260 0.0133 393 0.0066 615 0.0033 974 0.0012 2229 0.0002                                                                                                                        
2050 632 4150 23 0 170.3 11 48.4 20 4.6 21 1.4 127 0.029 136 0.0228 147 0.0276 158 0.0295 171 0.0293 185 0.0276 201 0.025 219 0.0219 241 0.0187 266 0.0155 296 0.0123 334 0.0093 384 0.0067 451 0.0045 555 0.0024 761 0.0011 1216 0.0005 2251 0.0002 4766 0.0001                                                                                                                                    
2051 633 4151 21 0 143.7 7 28.7 28 4.1 33 2.3 71 0.7002 75 0.3542 81 0.1948 88 0.1105 96 0.07649 107 0.05652 120 0.04021 138 0.02761 161 0.01832 191 0.01176 232 0.00727 289 0.00427 373 0.00238 502 0.00128 711 0.00067 1068 0.00035 1717 0.00018                                                                                                                                        
2052 634 4152 30 0 83.6 2 27.15 28 2.88 38 1.38 61 0.4295 66 0.5635 71 0.5241 77 0.4319 83 0.355 90 0.3131 97 0.2825 105 0.2467 115 0.2086 126 0.1713 139 0.1371 155 0.1071 174 0.0819 197 0.0614 227 0.045 265 0.0324 313 0.0229 377 0.0158 462 0.0108 578 0.0072 738 0.0047 965 0.003 1308 0.0014 2312 0.0004 8192 0.0001                                                                                                                        
2053 635 4160 24 0 1.06 1 0.077 203 0.0836 241 0.0683 281 0.0439 325 0.0235 372 0.0167 425 0.0114 486 0.0076 557 0.005 644 0.0035 752 0.0025 891 0.0018 1075 0.0011 1326 0.0008 1678 0.0006 2186 0.0003 3068 0.0001                                                                                                                                              
2054 636 4161 26 0 5.42 4 0.46 90 0.5083 107 0.6241 127 0.4838 149 0.2455 176 0.1244 206 0.0669 240 0.0367 279 0.0257 323 0.022 373 0.018 435 0.0134 514 0.0092 621 0.0058 771 0.0035 993 0.002 1333 0.0011 1881 0.0005 2945 0.0002                                                                                                                                          
2055 637 4162 27 0 56.2 2 5.27 9 2.05 35 0.283 108 0.3117 159 0.391 206 0.2416 247 0.1373 309 0.0772 407 0.04 478 0.0278 572 0.0189 698 0.0125 869 0.0081 1106 0.0051 1443 0.0031 1931 0.0018 2701 0.0008 4342 0.0003 8979 0.0001                                                                                                                                          
2056 638 4170 29 0 30.5 12 20.6 25 1.67 28 0.93 217 0.0776 247 0.0431 282 0.0255 322 0.0172 369 0.0144 426 0.0117 496 0.0081 584 0.0049 697 0.0027 851 0.0015 1072 0.0009 1409 0.0006 1948 0.0004 2865 0.0002 4523 0.0001 7730 0.0001                                                                                                                                          
2057 639 4171 28 0 35.8 10 8.1 18 1.86 173 0.0617 195 0.0225 218 0.018 242 0.0127 269 0.0093 299 0.0075 335 0.0059 380 0.0045 438 0.0033 517 0.0024 626 0.0016 782 0.001 1013 0.0007 1365 0.0004 1922 0.0003 2823 0.0002 4315 0.0001 6844 0.0001                                                                                                                                        
2058 640 4172 32 0 50 6 2.57 6 1.83 18 0.498 27 0.1576 47 0.0893 72 0.0529 99 0.0361 126 0.0305 152 0.0265 182 0.0207 217 0.0155 259 0.0119 306 0.0096 356 0.0083 404 0.0074 452 0.0066 501 0.0059 554 0.0052 613 0.0044 686 0.0035 779 0.0027 903 0.0019 1077 0.0014 1327 0.0009 1708 0.0006 2345 0.0003 3527 0.0002 5960 0.0001                                                                                                                        
2059 641 4180 28 0 1098 16 9.9 20 0.95 30 0.25 112 0.0477 149 0.0517 186 0.0447 222 0.0393 257 0.0344 289 0.0331 322 0.0316 357 0.0262 397 0.0203 444 0.0158 496 0.0126 551 0.0104 609 0.0091 664 0.0086 715 0.0082 767 0.0074 825 0.006 899 0.0043 1001 0.0029 1148 0.0018 1371 0.0011 1717 0.0006 2272 0.0003 3179 0.0001                                                                                                                          
2060 642 4181 29 0 47.2 11 9 28 1.74 34 0.8 74 0.1312 96 0.1355 120 0.1043 147 0.0785 177 0.0638 208 0.053 240 0.0427 273 0.0331 308 0.0245 344 0.0173 383 0.0119 426 0.0084 476 0.0064 536 0.0053 609 0.0042 701 0.0032 822 0.0024 984 0.0017 1206 0.0011 1521 0.0007 1979 0.0004 2666 0.0002 3732 0.0001 5447 0.0001                                                                                                                          
2061 643 4182 32 0 77.3 3 3.78 14 0.49 51 0.1626 75 0.1197 105 0.0894 139 0.0658 175 0.0569 211 0.0492 247 0.0341 282 0.0275 316 0.0257 349 0.0234 383 0.0199 416 0.0159 451 0.0129 489 0.0111 530 0.0096 579 0.0077 636 0.006 707 0.0045 798 0.0033 915 0.0024 1071 0.0017 1283 0.0012 1580 0.0008 2037 0.0005 2818 0.0002 4284 0.0001                                                                                                                        
2062 644 4183 33 0 358.9 8 3.8 86 0.0504 128 0.0332 180 0.0186 244 0.0099 321 0.0061 414 0.0043 525 0.0031 661 0.0023 832 0.0017 1052 0.0012 1347 0.0009 1760 0.0006 2360 0.0004 3264 0.0002 4643 0.0001 6768 0.0001 10080 0.0001                                                                                                                                            
2065 689 4340 15 4 35 9 9.99 53 1.3 57 0.48 92 0.3124 106 0.0954 122 0.0358 140 0.0219 163 0.0147 189 0.0131 222 0.0131 262 0.0116 313 0.0087 376 0.0067 458 0.0053                                                                                                                                                    
2066 690 4341 13 1 52 4 14 10 4 23 1.4 100 0.1795 118 0.0125 139 0.0462 166 0.0279 200 0.0177 243 0.0174 298 0.0142 370 0.0107 467 0.0073                                                                                                                                                        
2069 698 4442 13 10 432 19 468 28 355.2 34 235.9 38 98.4 39 52.56 41 24 45 17.28 46 11.28 49 5.28 51 2.64 56 1.272 60 0.48                                                                                                                                                        
2074 709 4511 89 66 0.338 94 0.252 114 0.26 126 0.163 138 0.231 148 0.146 157 0.17 165 0.101 172 0.151 180 0.118 186 0.127 192 0.137 198 0.0954 203 0.0994 209 0.151 214 0.138 221 0.191 226 0.163 233 0.318 241 0.126 246 0.172 251 0.206 256 0.111 261 0.1 266 0.2 270 0.109 275 0.144 280 0.0626 283 0.112 288 0.0984 292 0.0881 297 0.0909 303 0.0904 308 0.0993 314 0.0809 318 0.0748 323 0.0765 327 0.0685 331 0.0474 335 0.0667 339 0.0607 344 0.0475 348 0.0605 352 0.0749 357 0.152 364 0.0607 370 0.0576 376 0.0631 381 0.0436 387 0.0507 391 0.0513 397 0.0508 402 0.0439 407 0.0447 412 0.049 417 0.0449 422 0.0532 427 0.0372 432 0.033 438 0.0512 444 0.0316 451 0.0537 457 0.029 463 0.039 469 0.033 474 0.0399 481 0.0405 487 0.035 493 0.048 498 0.0502 503 0.0436 509 0.0401 514 0.0375 519 0.0451 524 0.0445 529 0.0235 533 0.036 539 0.0357 543 0.0347 547 0.0419 552 0.0406 557 0.0323 562 0.038 568 0.0446 572 0.0403 578 0.0375 583 0.0575 587 0.0272 592 0.0494
2077 712 4520 6 0 762 8 172.6 12 21.8 24 65.4 34 28.6 43 4.2                                                                                                                                                                      
2078 713 4521 44 17 0.567 22 0.383 24 0.409 35 0.136 36 0.0884 37 0.234 38 0.077 39 0.151 40 0.225 41 0.11 42 0.187 43 0.0708 43 0.085 44 0.107 45 0.503 46 1.06 47 1.7 49 1.24 52 0.956 53 1.79 56 0.301 57 1.39 67 0.401 71 0.495 75 0.184 76 0.269 79 0.0853 83 0.0299 83 0.0326 84 0.0386 85 0.0439 86 0.0843 87 0.0636 87 0.018 87 0.0385 90 0.0297 94 0.0135 96 0.00545 101 0.00597 117 0.00046 143 0.00086 164 0.00013 220 0.00023 223 5e-05                                                                                          
2080 715 4523 12 6 147.8 6 144.2 15 118.9 19 101.4 27 60.73 43 11.79 49 5.965 56 3.127 63 1.233 68 0.66 69 0.546 76 0.191                                                                                                                                                          
2082 725 4550 7 25 0.216 50 0.564 100 0.518 200 0.216 400 0.00328 600 0.00112 820 0.00086                                                                                                                                                                    
2083 726 4551 7 25 0.181 50 0.0216 100 0.0173 200 0.012 400 0.00276 600 0.00708 820 0.0007                                                                                                                                                                    
2084 727 4552 7 25 0.337 50 0.0467 100 0.0346 200 0.0156 400 0.00199 600 0.00067 820 0.00042                                                                                                                                                                    
2086 729 4560 7 25 0.207 50 0.0518 100 0.038 200 0.0285 400 0.00605 600 0.00112 820 0.00084                                                                                                                                                                    
2087 730 4561 7 25 0.104 50 0.0173 100 0.00674 200 0.00348 400 0.0019 600 0.00053 820 0.0032                                                                                                                                                                    
2088 731 4562 7 25 0.0588 50 0.0302 100 0.00821 200 0.00467 400 0.00346 600 0.00147 820 0.00077                                                                                                                                                                    
2089 732 4564 7 25 0.0864 50 0.0441 100 0.0156 200 0.0112 400 0.00691 600 0.00242 820 0.0001                                                                                                                                                                    
2090 733 4570 7 3 0.13 25 0.0242 50 0.0164 100 0.00864 200 0.00432 400 0.00397 600 0.00147                                                                                                                                                                    
2091 734 4571 7 3 0.138 25 0.0164 50 0.0121 100 0.0095 200 0.00588 400 0.00492 600 0.00225                                                                                                                                                                    
2092 735 4572 7 3 0.0864 25 0.0449 50 0.013 100 0.0076 200 0.00665 400 0.00536 600 0.00328                                                                                                                                                                    
2093 736 4573 7 3 0.086 25 0.0259 50 0.00596 100 0.0057 200 0.00276 400 0.00076 600 0.00042                                                                                                                                                                    
2094 737 4574 7 3 0.216 25 0.0259 50 0.00518 100 0.00242 200 0.00156 400 0.00147 600 0.00036                                                                                                                                                                    
2095 738 4575 7 3 0.095 25 0.0285 50 0.00432 100 0.00259 200 0.00147 400 0.00077 600 0.00031                                                                                                                                                                    
2096 739 4580 6 50 0.0785 100 0.0192 300 0.00613 500 0.00484 700 0.0013 850 0.00103                                                                                                                                                                      
2097 740 4581 6 50 0.0136 100 0.00561 300 0.00104 500 0.00067 700 0.00028 850 0.00017                                                                                                                                                                      
2098 741 4582 6 50 0.0031 100 0.00083 300 0.00062 500 0.0001 700 9e-05 850 7e-05                                                                                                                                                                      
2100 743 4590 11 11 0.0765 13 0.1083 14 0.06744 19 0.07623 23 0.07859 33 0.06441 52 0.0407 84 0.02628 150 0.01545 290 0.00677 1397 0.00115                                                                                                                                                            
2101 744 4591 9 145 0.00568 179 0.00692 226 0.00785 261 0.00671 377 0.00435 772 0.00222 1934 0.00077 5043 0.00024 47960 1e-05                                                                                                                                                                
2102 745 4592 10 46 0.02755 52 0.03418 61 0.03401 77 0.02333 125 0.01749 213 0.01156 376 0.00508 988 0.00128 2496 0.00025 16210 1e-05                                                                                                                                                              
2103 746 4600 9 71 0.0071 191 0.006 394 0.0032 1148 0.0011 3950 0.0004 9148 0.0001                                                                                                                                                                      
2105 748 4602 12 12 0.0368 28 0.0516 59 0.0388 132 0.0205 287 0.0086 687 0.0034 1360 0.0014 5411 0.0003                                                                                                                                                                  
2106 749 4610 11 26 0.0228 44 0.0327 70 0.0258 137 0.0182 243 0.0092 559 0.0037 1463 0.0014 3288 0.0005 11630 0.0001                                                                                                                                                                
2107 750 4611 15 66 0.045 78 0.0554 101 0.0388 140 0.0416 179 0.0436 230 0.0305 335 0.0181 524 0.0103 1100 0.0055 2081 0.003 4145 0.0013 10060 0.0005 23010 0.0001 204600 1e-05                                                                                                                                                      
2108 751 4612 11 28 0.071 40 0.0653 70 0.0522 138 0.028 269 0.0131 540 0.0055 1139 0.0021 2796 0.0008 8034 0.0002 27930 0.0001                                                                                                                                                              
2109 752 4620 10 4 0.2735 9 0.1494 36 0.0464 106 0.016 294 0.0058 1265 0.0015 14090 0.001 45790 0.0004                                                                                                                                                                  
2110 753 4621 13 6 0.2017 8 0.2886 11 0.2653 18 0.2165 30 0.1593 55 0.0848 127 0.0313 368 0.0106 1083 0.0038 3285 0.0011 10010 0.0003 1049000 2e-05                                                                                                                                                          
2111 754 4622 10 2 0.2576 9 0.1514 19 0.0696 60 0.0258 217 0.008 835 0.0022 2784 0.0006 11500 0.0001                                                                                                                                                                  
2112 755 4650 25 0 586.7 2 193.5 3 140 5 108.9 7 98.5 10 95.04 15 84.41 20 73.53 30 35.16 50 0.7353 70 0.0864 100 0.03283 150 0.01305 200 0.00719 300 0.003 500 0.00097 700 0.00055 1000 0.00031 1500 0.00015 2000 0.0001 3000 5e-05 5000 2e-05 7000 1e-05 10000 1e-05                                                                                                                                  
2113 756 4651 25 0 190.1 2 119.2 3 95.04 5 76.98 7 65.58 10 53.31 15 37.76 20 27.3 30 14.69 50 3.776 70 1.279 100 0.1935 150 0.03439 200 0.01469 300 0.00486 500 0.0015 700 0.00063 1000 0.00023 1500 8e-05 2000 4e-05 3000 2e-05 5000 1e-05 7000 1e-05 10000 1e-05                                                                                                                                  
2114 757 4660 25 0 625.5 2 413.9 3 299.8 5 182.3 7 123.6 10 76.98 15 40.87 20 24.36 30 10.89 50 2.298 70 0.7024 100 0.2169 150 0.06558 200 0.03249 300 0.01305 500 0.00433 700 0.00244 1000 0.00109 1500 0.00049 2000 0.00024 3000 7e-05 5000 3e-05 7000 3e-05 10000 3e-05 15000 2e-05                                                                                                                                
2115 758 4661 25 0 1140 2 1115 3 815.6 5 521 7 324.9 10 182.3 15 101.1 20 64.02 30 24.36 50 3.689 70 1.089 100 0.165 150 0.02583 200 0.01115 300 0.00328 500 0.00086 700 0.00039 1000 0.00024 1500 0.00015 2000 0.00011 3000 6e-05 5000 4e-05 7000 3e-05 10000 2e-05 15000 1e-05                                                                                                                                
2116 759 4670 25 1 88.99 2 81.56 3 72.66 5 62.55 7 57.72 10 53.91 15 49.16 20 46.4 30 39.05 50 27.3 70 17.63 100 8.813 150 2.022 200 0.6117 300 0.2169 500 0.05841 700 0.02583 1000 0.01365 1500 0.00545 2000 0.00244 3000 0.00065 5000 0.0002 7000 0.00015 10000 0.0001 15000 7e-05                                                                                                                                
2117 761 4672 25 1 2.419 2 2.592 3 2.592 5 2.592 7 2.549 10 2.488 15 2.488 20 2.436 30 1.935 50 1.434 70 1.063 100 0.686 150 0.3361 200 0.1935 300 0.07266 500 0.01728 700 0.00648 1000 0.00365 1500 0.00289 2000 0.00181 3000 0.00049 5000 0.00029 7000 0.00024 10000 0.00023 15000 0.0002                                                                                                                                
2118 762 4673 25 1 4.329 2 3.689 3 3.283 5 2.894 7 2.67 10 2.298 15 2.074 20 1.702 30 1.365 50 0.9677 70 0.7266 100 0.4856 150 0.267 200 0.1555 300 0.06048 500 0.01452 700 0.0077 1000 0.00433 1500 0.00289 2000 0.00194 3000 0.00082 5000 0.00039 7000 0.0002 10000 0.0001 15000 8e-05                                                                                                                                
2119 763 4680 25 0 3845 2 17.28 3 6.117 5 2.67 7 1.979 10 1.538 15 1.028 20 0.686 30 0.2998 50 0.0864 70 0.04856 100 0.02894 150 0.01728 200 0.01175 300 0.00073 500 0.00043 700 0.00031 1000 0.00023 1500 0.00012 2000 7e-05 3000 3e-05 5000 2e-05 7000 1e-05 10000 1e-05 15000 1e-05                                                                                                                                
2120 764 4681 25 0 1668 2 4.64 3 2.169 5 1.296 7 1.063 10 0.864 15 0.591 20 0.3862 30 0.1503 50 0.04044 70 0.02298 100 0.01339 150 0.00864 200 0.00686 300 0.00409 500 0.00273 700 0.00217 1000 0.00173 1500 0.00115 2000 0.00086 3000 0.00051 5000 0.00039 7000 0.00031 10000 0.00026 15000 0.00022                                                                                                                                
2125 771 4770 23 0 172 2 219 6 128 10 110 14 112 19 84.2 21 69.1 23 52.7 27 23 34 8.25 43 4.72 44 4.92 56 2.06 56 2.06 74 0.664 100 0.243 141 0.0705 179 0.0235 184 0.0251 225 0.0128 307 0.00616 385 0.00251 495 0.00154                                                                                                                                    
2126 772 4780 19 6 95.04 8 72.49 12 161.6 18 129.6 25 53.91 30 24.62 34 14 38 6.134 42 4 50 1.011 58 0.5089 71 0.1797 85 0.0832 120 0.02886 154 0.01771 221 0.00817 275 0.0055 363 0.00328 453 0.00201                                                                                                                                            
2127 773 4790 27 9 36.3 18 26.1 31 28.7 40 15.4 53 7.24 53 9.5 71 4.54 73 4.78 78 2.4 80 1.84 82 1.61 88 4.07 95 0.873 96 1.57 98 0.788 105 1.18 107 0.444 116 0.337 116 0.53 131 0.2 136 0.245 170 0.0873 174 0.0719 204 0.0392 254 0.0162 318 0.00732 376 0.00402                                                                                                                            
2128 774 4791 15 11 16.1 28 17.5 45 17.9 56 15.8 72 5.5 98 2.44 110 0.535 122 0.284 132 0.144 150 0.0585 175 0.0415 221 0.0137 258 0.00855 298 0.00506 359 0.00296                                                                                                                                                    
2129 775 4800 15 9 100 12 35 15 49 21 32 30 17 35 8.3 49 1.9 73 0.6 105 0.24 140 0.1 192 0.053 261 0.021 337 0.011 413 0.0068 492 0.0048                                                                                                                                                    
2130 776 4801 18 2 86 3 78 7 49 13 100 17 78 20 65 21 50 31 65 36 48 45 79 64 21 68 13 78 8.4 88 4.6 115 1.6 141 0.67 189 0.19 251 0.083                                                                                                                                              
2131 777 4810 16 3 829 24 44.1 24 44.1 26 28.5 27 11.2 30 6.65 32 3.89 36 1.04 38 0.57 39 0.276 41 0.147 41 0.095 42 0.0596 47 0.0259 47 0.0233 59 0.00302                                                                                                                 
