%!PS-Adobe-3.0 EPSF-3.0
%%Title: hygiene_sandstone_figures.eps
%%Creator: matplotlib version 1.1.1rc, http://matplotlib.sourceforge.net/
%%CreationDate: Mon Jun 10 22:23:42 2013
%%Orientation: portrait
%%BoundingBox: 0 216 612 576
%%EndComments
%%BeginProlog
/mpldict 10 dict def
mpldict begin
/m { moveto } bind def
/l { lineto } bind def
/r { rlineto } bind def
/c { curveto } bind def
/cl { closepath } bind def
/box {
m
1 index 0 r
0 exch r
neg 0 r
cl
} bind def
/clipbox {
box
clip
newpath
} bind def
%!PS-Adobe-3.0 Resource-Font
%%Title: DejaVu Sans
%%Copyright: Copyright (c) 2003 by Bitstream, Inc. All Rights Reserved. Copyright (c) 2006 by Tavmjong Bah. All Rights Reserved. DejaVu changes are in public domain 
%%Creator: Converted from TrueType to type 3 by PPR
25 dict begin
/_d{bind def}bind def
/_m{moveto}_d
/_l{lineto}_d
/_cl{closepath eofill}_d
/_c{curveto}_d
/_sc{7 -1 roll{setcachedevice}{pop pop pop pop pop pop}ifelse}_d
/_e{exec}_d
/FontName /DejaVuSans def
/PaintType 0 def
/FontMatrix[.001 0 0 .001 0 0]def
/FontBBox[-1021 -415 1681 1167]def
/FontType 3 def
/Encoding [ /hyphen /period /zero /one /two /four /six /eight /c /m ] def
/FontInfo 10 dict dup begin
/FamilyName (DejaVu Sans) def
/FullName (DejaVu Sans) def
/Notice (Copyright (c) 2003 by Bitstream, Inc. All Rights Reserved. Copyright (c) 2006 by Tavmjong Bah. All Rights Reserved. DejaVu changes are in public domain ) def
/Weight (Book) def
/Version (Version 2.33) def
/ItalicAngle 0.0 def
/isFixedPitch false def
/UnderlinePosition -130 def
/UnderlineThickness 90 def
end readonly def
/CharStrings 10 dict dup begin
/hyphen{361 0 49 234 312 314 _sc
49 314 _m
312 314 _l
312 234 _l
49 234 _l
49 314 _l
_cl}_d
/period{318 0 107 0 210 124 _sc
107 124 _m
210 124 _l
210 0 _l
107 0 _l
107 124 _l
_cl}_d
/zero{636 0 66 -13 570 742 _sc
318 664 _m
267 664 229 639 203 589 _c
177 539 165 464 165 364 _c
165 264 177 189 203 139 _c
229 89 267 64 318 64 _c
369 64 407 89 433 139 _c
458 189 471 264 471 364 _c
471 464 458 539 433 589 _c
407 639 369 664 318 664 _c
318 742 _m
399 742 461 709 505 645 _c
548 580 570 486 570 364 _c
570 241 548 147 505 83 _c
461 19 399 -13 318 -13 _c
236 -13 173 19 130 83 _c
87 147 66 241 66 364 _c
66 486 87 580 130 645 _c
173 709 236 742 318 742 _c
_cl}_d
/one{636 0 110 0 544 729 _sc
124 83 _m
285 83 _l
285 639 _l
110 604 _l
110 694 _l
284 729 _l
383 729 _l
383 83 _l
544 83 _l
544 0 _l
124 0 _l
124 83 _l
_cl}_d
/two{{636 0 73 0 536 742 _sc
192 83 _m
536 83 _l
536 0 _l
73 0 _l
73 83 _l
110 121 161 173 226 239 _c
290 304 331 346 348 365 _c
380 400 402 430 414 455 _c
426 479 433 504 433 528 _c
433 566 419 598 392 622 _c
365 646 330 659 286 659 _c
255 659 222 653 188 643 _c
154 632 117 616 78 594 _c
78 694 _l
118 710 155 722 189 730 _c
223 738 255 742 284 742 _c
359 742 419 723 464 685 _c
509 647 532 597 532 534 _c
532 504 526 475 515 449 _c
504 422 484 390 454 354 _c
446 344 420 317 376 272 _c
332 227 271 164 192 83 _c
_cl}_e}_d
/four{636 0 49 0 580 729 _sc
378 643 _m
129 254 _l
378 254 _l
378 643 _l
352 729 _m
476 729 _l
476 254 _l
580 254 _l
580 172 _l
476 172 _l
476 0 _l
378 0 _l
378 172 _l
49 172 _l
49 267 _l
352 729 _l
_cl}_d
/six{{636 0 70 -13 573 742 _sc
330 404 _m
286 404 251 388 225 358 _c
199 328 186 286 186 234 _c
186 181 199 139 225 109 _c
251 79 286 64 330 64 _c
374 64 409 79 435 109 _c
461 139 474 181 474 234 _c
474 286 461 328 435 358 _c
409 388 374 404 330 404 _c
526 713 _m
526 623 _l
501 635 476 644 451 650 _c
425 656 400 659 376 659 _c
310 659 260 637 226 593 _c
192 549 172 482 168 394 _c
187 422 211 444 240 459 _c
269 474 301 482 336 482 _c
409 482 467 459 509 415 _c
551 371 573 310 573 234 _c
573 159 550 99 506 54 _c
462 9 403 -13 330 -13 _c
246 -13 181 19 137 83 _c
92 147 70 241 70 364 _c
70 479 97 571 152 639 _c
206 707 280 742 372 742 _c
}_e{396 742 421 739 447 735 _c
472 730 498 723 526 713 _c
_cl}_e}_d
/eight{{636 0 68 -13 568 742 _sc
318 346 _m
271 346 234 333 207 308 _c
180 283 167 249 167 205 _c
167 161 180 126 207 101 _c
234 76 271 64 318 64 _c
364 64 401 76 428 102 _c
455 127 469 161 469 205 _c
469 249 455 283 429 308 _c
402 333 365 346 318 346 _c
219 388 _m
177 398 144 418 120 447 _c
96 476 85 511 85 553 _c
85 611 105 657 147 691 _c
188 725 245 742 318 742 _c
390 742 447 725 489 691 _c
530 657 551 611 551 553 _c
551 511 539 476 515 447 _c
491 418 459 398 417 388 _c
464 377 501 355 528 323 _c
554 291 568 251 568 205 _c
568 134 546 80 503 43 _c
459 5 398 -13 318 -13 _c
237 -13 175 5 132 43 _c
89 80 68 134 68 205 _c
68 251 81 291 108 323 _c
134 355 171 377 219 388 _c
}_e{183 544 _m
183 506 194 476 218 455 _c
242 434 275 424 318 424 _c
360 424 393 434 417 455 _c
441 476 453 506 453 544 _c
453 582 441 611 417 632 _c
393 653 360 664 318 664 _c
275 664 242 653 218 632 _c
194 611 183 582 183 544 _c
_cl}_e}_d
/c{{550 0 55 -13 488 560 _sc
488 526 _m
488 442 _l
462 456 437 466 411 473 _c
385 480 360 484 334 484 _c
276 484 230 465 198 428 _c
166 391 150 339 150 273 _c
150 206 166 154 198 117 _c
230 80 276 62 334 62 _c
360 62 385 65 411 72 _c
437 79 462 90 488 104 _c
488 21 _l
462 9 436 0 410 -5 _c
383 -10 354 -13 324 -13 _c
242 -13 176 12 128 64 _c
79 115 55 185 55 273 _c
55 362 79 432 128 483 _c
177 534 244 560 330 560 _c
358 560 385 557 411 551 _c
437 545 463 537 488 526 _c
_cl}_e}_d
/m{{974 0 91 0 889 560 _sc
520 442 _m
542 482 569 511 600 531 _c
631 550 668 560 711 560 _c
767 560 811 540 842 500 _c
873 460 889 403 889 330 _c
889 0 _l
799 0 _l
799 327 _l
799 379 789 418 771 444 _c
752 469 724 482 686 482 _c
639 482 602 466 575 435 _c
548 404 535 362 535 309 _c
535 0 _l
445 0 _l
445 327 _l
445 379 435 418 417 444 _c
398 469 369 482 331 482 _c
285 482 248 466 221 435 _c
194 404 181 362 181 309 _c
181 0 _l
91 0 _l
91 547 _l
181 547 _l
181 462 _l
201 495 226 520 255 536 _c
283 552 317 560 357 560 _c
397 560 430 550 458 530 _c
486 510 506 480 520 442 _c
}_e{_cl}_e}_d
end readonly def

/BuildGlyph
 {exch begin
 CharStrings exch
 2 copy known not{pop /.notdef}if
 true 3 1 roll get exec
 end}_d

/BuildChar {
 1 index /Encoding get exch get
 1 index /BuildGlyph get exec
}_d

FontName currentdict end definefont pop
%!PS-Adobe-3.0 Resource-Font
%%Title: cmmi10
%%Copyright: Copyright (C) 1994, Basil K. Malyshev. All Rights Reserved.012BaKoMa Fonts Collection, Level-B.
%%Creator: Converted from TrueType to type 3 by PPR
25 dict begin
/_d{bind def}bind def
/_m{moveto}_d
/_l{lineto}_d
/_cl{closepath eofill}_d
/_c{curveto}_d
/_sc{7 -1 roll{setcachedevice}{pop pop pop pop pop pop}ifelse}_d
/_e{exec}_d
/FontName /Cmmi10 def
/PaintType 0 def
/FontMatrix[.001 0 0 .001 0 0]def
/FontBBox[-34 -250 1048 750]def
/FontType 3 def
/Encoding [ /theta /h /K /r ] def
/FontInfo 10 dict dup begin
/FamilyName (cmmi10) def
/FullName (cmmi10) def
/Notice (Copyright (C) 1994, Basil K. Malyshev. All Rights Reserved.012BaKoMa Fonts Collection, Level-B. ) def
/Weight (Regular) def
/Version (1.1/12-Nov-94) def
/ItalicAngle 0.0 def
/isFixedPitch false def
/UnderlinePosition -133 def
/UnderlineThickness 20 def
end readonly def
/CharStrings 4 dict dup begin
/theta{{469 0 40 -10 457 705 _sc
161 -10 _m
131 -10 106 0 88 22 _c
70 44 57 70 50 102 _c
43 133 40 164 40 195 _c
40 196 _l
40 229 43 263 49 299 _c
55 335 65 370 77 406 _c
89 442 102 474 116 502 _c
126 521 138 543 154 567 _c
169 591 186 614 205 635 _c
224 656 245 673 267 686 _c
289 698 311 705 334 705 _c
335 705 _l
359 705 379 698 395 685 _c
411 671 423 654 432 634 _c
441 613 447 591 451 567 _c
455 543 457 520 457 499 _c
457 448 450 396 436 344 _c
422 292 404 241 380 192 _c
370 173 358 151 342 126 _c
326 101 309 79 291 59 _c
273 39 252 22 230 9 _c
207 -3 184 -10 162 -10 _c
161 -10 _l
163 15 _m
185 15 206 26 226 50 _c
246 74 264 102 280 136 _c
295 170 308 204 320 240 _c
332 275 340 305 346 330 _c
142 330 _l
131 288 123 251 117 221 _c
111 191 109 161 109 132 _c
109 54 127 15 163 15 _c
150 365 _m
355 365 _l
}_e{362 394 368 418 372 438 _c
376 458 379 479 382 501 _c
385 523 387 543 387 562 _c
387 640 369 679 334 679 _c
292 679 255 645 224 577 _c
193 509 168 438 150 365 _c
_cl}_e}_d
/h{{576 0 53 -10 549 694 _sc
53 18 _m
53 22 53 25 54 27 _c
199 605 _l
201 616 203 625 204 632 _c
204 642 182 648 139 648 _c
132 648 129 652 129 661 _c
129 663 129 666 131 670 _c
132 674 133 677 135 679 _c
137 681 139 683 143 683 _c
278 694 _l
281 694 _l
281 693 282 692 284 691 _c
286 689 288 689 288 689 _c
289 685 290 683 290 681 _c
212 369 _l
252 417 301 442 358 442 _c
381 442 401 437 418 429 _c
435 421 448 408 458 392 _c
468 376 473 356 473 334 _c
473 306 467 273 455 235 _c
443 196 427 153 409 105 _c
399 83 395 63 395 45 _c
}_e{395 25 402 15 418 15 _c
444 15 465 29 483 57 _c
500 85 512 115 520 147 _c
521 151 524 153 528 153 _c
540 153 _l
542 153 544 152 546 150 _c
548 148 549 146 549 144 _c
549 143 548 142 548 141 _c
542 117 533 93 521 70 _c
509 46 495 27 478 12 _c
460 -2 440 -10 416 -10 _c
392 -10 372 -2 356 13 _c
339 29 331 48 331 72 _c
331 84 333 97 339 111 _c
357 161 373 205 386 245 _c
398 284 405 319 405 349 _c
405 368 401 384 393 397 _c
385 409 373 416 356 416 _c
320 416 288 405 262 383 _c
235 361 212 332 193 296 _c
125 23 _l
122 13 117 5 110 -1 _c
102 -7 94 -10 84 -10 _c
75 -10 68 -7 62 -2 _c
56 3 53 10 53 18 _c
}_e{_cl}_e}_d
/K{{849 0 37 0 890 683 _sc
47 0 _m
40 0 37 4 37 13 _c
37 15 38 18 39 22 _c
40 26 41 29 43 31 _c
45 33 47 35 50 35 _c
90 35 119 37 135 42 _c
143 44 150 53 154 69 _c
291 618 _l
292 624 293 629 293 632 _c
293 639 289 643 281 644 _c
268 646 244 648 209 648 _c
202 648 199 652 199 661 _c
201 669 203 675 205 678 _c
206 681 210 683 216 683 _c
485 683 _l
491 683 495 678 495 670 _c
495 668 494 665 493 661 _c
492 657 491 654 489 652 _c
487 649 485 648 482 648 _c
}_e{441 648 413 645 397 641 _c
388 637 382 628 378 614 _c
297 290 _l
689 593 _l
689 594 693 598 701 606 _c
709 614 713 621 713 629 _c
713 641 701 648 679 648 _c
672 648 669 652 669 661 _c
670 666 671 670 672 673 _c
672 676 674 678 676 680 _c
678 682 682 683 686 683 _c
880 683 _l
883 683 885 681 887 679 _c
889 676 890 673 890 670 _c
890 668 889 665 888 661 _c
886 657 885 653 883 651 _c
881 649 879 648 876 648 _c
827 648 774 625 716 580 _c
715 580 714 579 714 579 _c
713 579 712 579 712 579 _c
711 579 711 578 711 578 _c
505 418 _l
655 67 _l
663 52 673 43 684 40 _c
694 36 710 35 732 35 _c
}_e{738 35 742 30 742 22 _c
740 14 738 8 736 5 _c
734 1 730 0 725 0 _c
493 0 _l
487 0 484 4 484 13 _c
484 19 485 25 487 29 _c
488 33 491 35 497 35 _c
513 35 528 36 540 40 _c
552 43 558 51 558 64 _c
558 68 557 72 557 74 _c
433 363 _l
287 250 _l
241 65 _l
239 57 239 52 239 51 _c
239 44 243 40 251 39 _c
263 36 287 35 323 35 _c
329 35 333 30 333 22 _c
331 12 329 6 328 4 _c
326 1 322 0 316 0 _c
47 0 _l
_cl}_e}_d
/r{{451 0 27 -10 434 442 _sc
77 17 _m
77 21 77 24 78 26 _c
153 324 _l
157 342 160 359 160 373 _c
160 401 150 416 131 416 _c
110 416 94 403 84 378 _c
74 353 64 322 55 284 _c
55 282 54 280 52 279 _c
50 278 48 278 47 278 _c
35 278 _l
33 278 31 279 29 281 _c
27 283 27 286 27 288 _c
34 317 41 342 48 362 _c
54 382 65 400 79 417 _c
93 433 110 442 132 442 _c
155 442 175 435 193 422 _c
210 408 221 391 225 369 _c
241 391 260 408 282 422 _c
304 435 328 442 354 442 _c
375 442 394 435 410 423 _c
426 411 434 394 434 373 _c
434 356 428 341 418 329 _c
407 316 393 310 376 310 _c
}_e{365 310 356 313 349 320 _c
341 326 338 335 338 346 _c
338 360 343 373 354 385 _c
364 397 377 403 391 403 _c
380 411 367 416 352 416 _c
323 416 298 405 277 385 _c
256 365 237 339 220 308 _c
149 22 _l
147 12 142 5 134 -1 _c
126 -7 117 -10 107 -10 _c
99 -10 92 -7 86 -3 _c
80 1 77 8 77 17 _c
_cl}_e}_d
end readonly def

/BuildGlyph
 {exch begin
 CharStrings exch
 2 copy known not{pop /.notdef}if
 true 3 1 roll get exec
 end}_d

/BuildChar {
 1 index /Encoding get exch get
 1 index /BuildGlyph get exec
}_d

FontName currentdict end definefont pop
%!PS-Adobe-3.0 Resource-Font
%%Title: cmr10
%%Copyright: Copyright (C) 1994, Basil K. Malyshev. All Rights Reserved.012BaKoMa Fonts Collection, Level-B.
%%Creator: Converted from TrueType to type 3 by PPR
25 dict begin
/_d{bind def}bind def
/_m{moveto}_d
/_l{lineto}_d
/_cl{closepath eofill}_d
/_c{curveto}_d
/_sc{7 -1 roll{setcachedevice}{pop pop pop pop pop pop}ifelse}_d
/_e{exec}_d
/FontName /Cmr10 def
/PaintType 0 def
/FontMatrix[.001 0 0 .001 0 0]def
/FontBBox[-44 -250 1009 750]def
/FontType 3 def
/Encoding [ /parenright /parenleft ] def
/FontInfo 10 dict dup begin
/FamilyName (cmr10) def
/FullName (cmr10) def
/Notice (Copyright (C) 1994, Basil K. Malyshev. All Rights Reserved.012BaKoMa Fonts Collection, Level-B. ) def
/Weight (Regular) def
/Version (1.1/12-Nov-94) def
/ItalicAngle 0.0 def
/isFixedPitch false def
/UnderlinePosition -133 def
/UnderlineThickness 20 def
end readonly def
/CharStrings 2 dict dup begin
/parenright{{388 0 56 -249 291 750 _sc
65 -249 _m
59 -249 56 -246 56 -240 _c
56 -237 56 -235 58 -234 _c
172 -122 229 38 229 250 _c
229 462 172 623 60 733 _c
57 734 56 737 56 741 _c
56 743 57 745 59 747 _c
61 749 63 750 65 750 _c
74 750 _l
76 750 77 749 79 748 _c
127 710 167 664 199 610 _c
231 556 254 498 269 437 _c
283 376 291 314 291 250 _c
291 202 287 156 279 110 _c
271 64 258 20 241 -24 _c
223 -68 201 -108 175 -146 _c
148 -184 116 -217 79 -247 _c
77 -248 76 -249 74 -249 _c
65 -249 _l
_cl}_e}_d
/parenleft{{388 0 97 -249 332 750 _sc
310 -247 _m
272 -217 240 -184 214 -146 _c
187 -108 165 -67 148 -25 _c
131 17 118 62 110 109 _c
101 155 97 202 97 250 _c
97 298 101 345 110 392 _c
118 438 131 483 149 527 _c
166 570 188 611 215 649 _c
242 687 274 720 310 748 _c
310 749 311 750 315 750 _c
324 750 _l
326 750 327 749 329 747 _c
331 745 332 743 332 741 _c
332 738 331 736 330 735 _c
297 703 270 668 248 632 _c
226 596 209 557 196 516 _c
183 474 174 432 168 388 _c
162 344 159 298 159 250 _c
159 38 215 -122 329 -232 _c
331 -234 332 -236 332 -240 _c
332 -242 331 -244 329 -246 _c
327 -248 326 -249 324 -249 _c
315 -249 _l
311 -249 310 -248 310 -247 _c
_cl}_e}_d
end readonly def

/BuildGlyph
 {exch begin
 CharStrings exch
 2 copy known not{pop /.notdef}if
 true 3 1 roll get exec
 end}_d

/BuildChar {
 1 index /Encoding get exch get
 1 index /BuildGlyph get exec
}_d

FontName currentdict end definefont pop
end
%%EndProlog
mpldict begin
0 216 translate
612 360 0 0 clipbox
gsave
0 0 m
612 0 l
612 360 l
0 360 l
cl
1.000 setgray
fill
grestore
gsave
76.5 36 m
274.125 36 l
274.125 324 l
76.5 324 l
cl
1.000 setgray
fill
grestore
0.500 setlinewidth
1 setlinejoin
0 setlinecap
[] 0 setdash
0.000 setgray
gsave
197.6 288 76.5 36 clipbox
/o {
gsave
newpath
translate
0.5 setlinewidth
1 setlinejoin
0 setlinecap
0 -3 m
0.795609 -3 1.55874 -2.6839 2.12132 -2.12132 c
2.6839 -1.55874 3 -0.795609 3 0 c
3 0.795609 2.6839 1.55874 2.12132 2.12132 c
1.55874 2.6839 0.795609 3 0 3 c
-0.795609 3 -1.55874 2.6839 -2.12132 2.12132 c
-2.6839 1.55874 -3 0.795609 -3 0 c
-3 -0.795609 -2.6839 -1.55874 -2.12132 -2.12132 c
-1.55874 -2.6839 -0.795609 -3 0 -3 c
cl
gsave
1.000 0.000 0.000 setrgbcolor
fill
grestore
stroke
grestore
} bind def
113.362 284.771 o
134.728 283.3 o
161.02 281.854 o
195.522 280.452 o
202.203 270.992 o
205.582 263.097 o
207.471 242.536 o
212.738 214.08 o
216.325 188.78 o
221.63 157.159 o
228.577 125.547 o
235.468 98.6816 o
247.189 79.7537 o
grestore
1.000 setlinewidth
2 setlinecap
gsave
197.6 288 76.5 36 clipbox
-102.147 282.857 m
-1 282.857 m
-0.881025 282.857 l
3.33839 282.857 l
7.5578 282.857 l
11.7772 282.857 l
15.9966 282.857 l
20.216 282.857 l
24.4355 282.857 l
28.6549 282.857 l
32.8743 282.857 l
37.0937 282.857 l
41.3131 282.857 l
45.5325 282.857 l
49.7519 282.857 l
53.9713 282.857 l
58.1908 282.857 l
62.4102 282.857 l
66.6296 282.857 l
70.849 282.857 l
75.0684 282.857 l
79.2878 282.857 l
83.5072 282.857 l
87.7267 282.857 l
91.9461 282.857 l
96.1655 282.857 l
100.385 282.857 l
104.604 282.857 l
108.824 282.857 l
113.043 282.857 l
117.263 282.857 l
121.482 282.857 l
125.701 282.857 l
129.921 282.857 l
134.14 282.857 l
138.36 282.857 l
142.579 282.857 l
146.798 282.857 l
151.018 282.857 l
155.237 282.857 l
159.457 282.857 l
163.676 282.857 l
167.896 282.857 l
172.115 282.857 l
176.334 282.857 l
180.554 282.857 l
184.773 282.84 l
188.993 282.659 l
193.212 281.66 l
197.431 278.242 l
201.651 270.045 l
205.87 255.072 l
210.09 233.044 l
214.309 205.9 l
218.528 177.083 l
222.748 150.175 l
226.967 127.735 l
231.187 110.824 l
235.406 99.2084 l
239.626 91.8882 l
243.845 87.635 l
248.064 85.3488 l
252.284 84.2092 l
256.503 83.6818 l
260.723 83.455 l
264.942 83.3644 l
269.161 83.3309 l
273.381 83.3194 l
277.6 83.3157 l
281.82 83.3147 l
286.039 83.3144 l
290.258 83.3143 l
294.478 83.3143 l
298.697 83.3143 l
302.917 83.3143 l
307.136 83.3143 l
311.356 83.3143 l
315.575 83.3143 l
stroke
grestore
0.500 setlinewidth
0 setlinecap
gsave
/o {
gsave
newpath
translate
0.5 setlinewidth
1 setlinejoin
0 setlinecap
0 0 m
0 4 l
gsave
0.000 setgray
fill
grestore
stroke
grestore
} bind def
201.651 36 o
grestore
gsave
/o {
gsave
newpath
translate
0.5 setlinewidth
1 setlinejoin
0 setlinecap
0 0 m
0 -4 l
gsave
0.000 setgray
fill
grestore
stroke
grestore
} bind def
201.651 324 o
grestore
gsave
190.650815 17.000000 translate
0.000000 rotate
/DejaVuSans findfont
12.0 scalefont
setfont
0.000000 1.828125 moveto
/one glyphshow

7.634766 1.828125 moveto
/zero glyphshow

/DejaVuSans findfont
8.4 scalefont
setfont
15.269531 8.765625 moveto
/two glyphshow


grestore
gsave
/o {
gsave
newpath
translate
0.5 setlinewidth
1 setlinejoin
0 setlinecap
0 0 m
0 2 l
gsave
0.000 setgray
fill
grestore
stroke
grestore
} bind def
95.4781 36 o
grestore
gsave
/o {
gsave
newpath
translate
0.5 setlinewidth
1 setlinejoin
0 setlinecap
0 0 m
0 -2 l
gsave
0.000 setgray
fill
grestore
stroke
grestore
} bind def
95.4781 324 o
grestore
gsave
/o {
gsave
newpath
translate
0.5 setlinewidth
1 setlinejoin
0 setlinecap
0 0 m
0 2 l
gsave
0.000 setgray
fill
grestore
stroke
grestore
} bind def
122.226 36 o
grestore
gsave
/o {
gsave
newpath
translate
0.5 setlinewidth
1 setlinejoin
0 setlinecap
0 0 m
0 -2 l
gsave
0.000 setgray
fill
grestore
stroke
grestore
} bind def
122.226 324 o
grestore
gsave
/o {
gsave
newpath
translate
0.5 setlinewidth
1 setlinejoin
0 setlinecap
0 0 m
0 2 l
gsave
0.000 setgray
fill
grestore
stroke
grestore
} bind def
141.204 36 o
grestore
gsave
/o {
gsave
newpath
translate
0.5 setlinewidth
1 setlinejoin
0 setlinecap
0 0 m
0 -2 l
gsave
0.000 setgray
fill
grestore
stroke
grestore
} bind def
141.204 324 o
grestore
gsave
/o {
gsave
newpath
translate
0.5 setlinewidth
1 setlinejoin
0 setlinecap
0 0 m
0 2 l
gsave
0.000 setgray
fill
grestore
stroke
grestore
} bind def
155.925 36 o
grestore
gsave
/o {
gsave
newpath
translate
0.5 setlinewidth
1 setlinejoin
0 setlinecap
0 0 m
0 -2 l
gsave
0.000 setgray
fill
grestore
stroke
grestore
} bind def
155.925 324 o
grestore
gsave
/o {
gsave
newpath
translate
0.5 setlinewidth
1 setlinejoin
0 setlinecap
0 0 m
0 2 l
gsave
0.000 setgray
fill
grestore
stroke
grestore
} bind def
167.952 36 o
grestore
gsave
/o {
gsave
newpath
translate
0.5 setlinewidth
1 setlinejoin
0 setlinecap
0 0 m
0 -2 l
gsave
0.000 setgray
fill
grestore
stroke
grestore
} bind def
167.952 324 o
grestore
gsave
/o {
gsave
newpath
translate
0.5 setlinewidth
1 setlinejoin
0 setlinecap
0 0 m
0 2 l
gsave
0.000 setgray
fill
grestore
stroke
grestore
} bind def
178.121 36 o
grestore
gsave
/o {
gsave
newpath
translate
0.5 setlinewidth
1 setlinejoin
0 setlinecap
0 0 m
0 -2 l
gsave
0.000 setgray
fill
grestore
stroke
grestore
} bind def
178.121 324 o
grestore
gsave
/o {
gsave
newpath
translate
0.5 setlinewidth
1 setlinejoin
0 setlinecap
0 0 m
0 2 l
gsave
0.000 setgray
fill
grestore
stroke
grestore
} bind def
186.93 36 o
grestore
gsave
/o {
gsave
newpath
translate
0.5 setlinewidth
1 setlinejoin
0 setlinecap
0 0 m
0 -2 l
gsave
0.000 setgray
fill
grestore
stroke
grestore
} bind def
186.93 324 o
grestore
gsave
/o {
gsave
newpath
translate
0.5 setlinewidth
1 setlinejoin
0 setlinecap
0 0 m
0 2 l
gsave
0.000 setgray
fill
grestore
stroke
grestore
} bind def
194.7 36 o
grestore
gsave
/o {
gsave
newpath
translate
0.5 setlinewidth
1 setlinejoin
0 setlinecap
0 0 m
0 -2 l
gsave
0.000 setgray
fill
grestore
stroke
grestore
} bind def
194.7 324 o
grestore
gsave
/o {
gsave
newpath
translate
0.5 setlinewidth
1 setlinejoin
0 setlinecap
0 0 m
0 2 l
gsave
0.000 setgray
fill
grestore
stroke
grestore
} bind def
247.377 36 o
grestore
gsave
/o {
gsave
newpath
translate
0.5 setlinewidth
1 setlinejoin
0 setlinecap
0 0 m
0 -2 l
gsave
0.000 setgray
fill
grestore
stroke
grestore
} bind def
247.377 324 o
grestore
gsave
/o {
gsave
newpath
translate
0.5 setlinewidth
1 setlinejoin
0 setlinecap
0 0 m
0 2 l
gsave
0.000 setgray
fill
grestore
stroke
grestore
} bind def
274.125 36 o
grestore
gsave
/o {
gsave
newpath
translate
0.5 setlinewidth
1 setlinejoin
0 setlinecap
0 0 m
0 -2 l
gsave
0.000 setgray
fill
grestore
stroke
grestore
} bind def
274.125 324 o
grestore
gsave
157.812500 -0.000000 translate
0.000000 rotate
/Cmmi10 findfont
12.0 scalefont
setfont
0.000000 3.000000 moveto
/h glyphshow

/Cmr10 findfont
12.0 scalefont
setfont
6.914062 3.000000 moveto
/parenleft glyphshow

/DejaVuSans findfont
12.0 scalefont
setfont
11.572266 3.000000 moveto
/c glyphshow

18.169922 3.000000 moveto
/m glyphshow

/Cmr10 findfont
12.0 scalefont
setfont
29.859375 3.000000 moveto
/parenright glyphshow


grestore
gsave
/o {
gsave
newpath
translate
0.5 setlinewidth
1 setlinejoin
0 setlinecap
0 0 m
4 0 l
gsave
0.000 setgray
fill
grestore
stroke
grestore
} bind def
76.5 56.5714 o
grestore
gsave
/o {
gsave
newpath
translate
0.5 setlinewidth
1 setlinejoin
0 setlinecap
0 0 m
-4 0 l
gsave
0.000 setgray
fill
grestore
stroke
grestore
} bind def
274.125 56.5714 o
grestore
/DejaVuSans findfont
12.000 scalefont
setfont
gsave
47.234375 52.032366 translate
0.000000 rotate
0.000000 0.171875 m /zero glyphshow
7.634766 0.171875 m /period glyphshow
11.449219 0.171875 m /one glyphshow
19.083984 0.171875 m /four glyphshow
grestore
gsave
/o {
gsave
newpath
translate
0.5 setlinewidth
1 setlinejoin
0 setlinecap
0 0 m
4 0 l
gsave
0.000 setgray
fill
grestore
stroke
grestore
} bind def
76.5 97.7143 o
grestore
gsave
/o {
gsave
newpath
translate
0.5 setlinewidth
1 setlinejoin
0 setlinecap
0 0 m
-4 0 l
gsave
0.000 setgray
fill
grestore
stroke
grestore
} bind def
274.125 97.7143 o
grestore
gsave
47.328125 93.175223 translate
0.000000 rotate
0.000000 0.171875 m /zero glyphshow
7.634766 0.171875 m /period glyphshow
11.449219 0.171875 m /one glyphshow
19.083984 0.171875 m /six glyphshow
grestore
gsave
/o {
gsave
newpath
translate
0.5 setlinewidth
1 setlinejoin
0 setlinecap
0 0 m
4 0 l
gsave
0.000 setgray
fill
grestore
stroke
grestore
} bind def
76.5 138.857 o
grestore
gsave
/o {
gsave
newpath
translate
0.5 setlinewidth
1 setlinejoin
0 setlinecap
0 0 m
-4 0 l
gsave
0.000 setgray
fill
grestore
stroke
grestore
} bind def
274.125 138.857 o
grestore
gsave
47.390625 134.318080 translate
0.000000 rotate
0.000000 0.171875 m /zero glyphshow
7.634766 0.171875 m /period glyphshow
11.449219 0.171875 m /one glyphshow
19.083984 0.171875 m /eight glyphshow
grestore
gsave
/o {
gsave
newpath
translate
0.5 setlinewidth
1 setlinejoin
0 setlinecap
0 0 m
4 0 l
gsave
0.000 setgray
fill
grestore
stroke
grestore
} bind def
76.5 180 o
grestore
gsave
/o {
gsave
newpath
translate
0.5 setlinewidth
1 setlinejoin
0 setlinecap
0 0 m
-4 0 l
gsave
0.000 setgray
fill
grestore
stroke
grestore
} bind def
274.125 180 o
grestore
gsave
47.359375 175.460937 translate
0.000000 rotate
0.000000 0.171875 m /zero glyphshow
7.634766 0.171875 m /period glyphshow
11.449219 0.171875 m /two glyphshow
19.083984 0.171875 m /zero glyphshow
grestore
gsave
/o {
gsave
newpath
translate
0.5 setlinewidth
1 setlinejoin
0 setlinecap
0 0 m
4 0 l
gsave
0.000 setgray
fill
grestore
stroke
grestore
} bind def
76.5 221.143 o
grestore
gsave
/o {
gsave
newpath
translate
0.5 setlinewidth
1 setlinejoin
0 setlinecap
0 0 m
-4 0 l
gsave
0.000 setgray
fill
grestore
stroke
grestore
} bind def
274.125 221.143 o
grestore
gsave
47.765625 216.603795 translate
0.000000 rotate
0.000000 0.171875 m /zero glyphshow
7.634766 0.171875 m /period glyphshow
11.449219 0.171875 m /two glyphshow
19.083984 0.171875 m /two glyphshow
grestore
gsave
/o {
gsave
newpath
translate
0.5 setlinewidth
1 setlinejoin
0 setlinecap
0 0 m
4 0 l
gsave
0.000 setgray
fill
grestore
stroke
grestore
} bind def
76.5 262.286 o
grestore
gsave
/o {
gsave
newpath
translate
0.5 setlinewidth
1 setlinejoin
0 setlinecap
0 0 m
-4 0 l
gsave
0.000 setgray
fill
grestore
stroke
grestore
} bind def
274.125 262.286 o
grestore
gsave
47.234375 257.746652 translate
0.000000 rotate
0.000000 0.171875 m /zero glyphshow
7.634766 0.171875 m /period glyphshow
11.449219 0.171875 m /two glyphshow
19.083984 0.171875 m /four glyphshow
grestore
gsave
/o {
gsave
newpath
translate
0.5 setlinewidth
1 setlinejoin
0 setlinecap
0 0 m
4 0 l
gsave
0.000 setgray
fill
grestore
stroke
grestore
} bind def
76.5 303.429 o
grestore
gsave
/o {
gsave
newpath
translate
0.5 setlinewidth
1 setlinejoin
0 setlinecap
0 0 m
-4 0 l
gsave
0.000 setgray
fill
grestore
stroke
grestore
} bind def
274.125 303.429 o
grestore
gsave
47.328125 298.889509 translate
0.000000 rotate
0.000000 0.171875 m /zero glyphshow
7.634766 0.171875 m /period glyphshow
11.449219 0.171875 m /two glyphshow
19.083984 0.171875 m /six glyphshow
grestore
gsave
42.234375 169.000000 translate
90.000000 rotate
/Cmmi10 findfont
12.0 scalefont
setfont
0.000000 3.000000 moveto
/theta glyphshow

/Cmr10 findfont
12.0 scalefont
setfont
5.630859 3.000000 moveto
/parenleft glyphshow

/Cmmi10 findfont
12.0 scalefont
setfont
10.289062 3.000000 moveto
/h glyphshow

/Cmr10 findfont
12.0 scalefont
setfont
17.203125 3.000000 moveto
/parenright glyphshow


grestore
1.000 setlinewidth
2 setlinecap
gsave
76.5 324 m
274.125 324 l
stroke
grestore
gsave
274.125 36 m
274.125 324 l
stroke
grestore
gsave
76.5 36 m
274.125 36 l
stroke
grestore
gsave
76.5 36 m
76.5 324 l
stroke
grestore
gsave
353.175 36 m
550.8 36 l
550.8 324 l
353.175 324 l
cl
1.000 setgray
fill
grestore
0.500 setlinewidth
0 setlinecap
gsave
197.6 288 353.2 36 clipbox
/o {
gsave
newpath
translate
0.5 setlinewidth
1 setlinejoin
0 setlinecap
0 -3 m
0.795609 -3 1.55874 -2.6839 2.12132 -2.12132 c
2.6839 -1.55874 3 -0.795609 3 0 c
3 0.795609 2.6839 1.55874 2.12132 2.12132 c
1.55874 2.6839 0.795609 3 0 3 c
-0.795609 3 -1.55874 2.6839 -2.12132 2.12132 c
-2.6839 1.55874 -3 0.795609 -3 0 c
-3 -0.795609 -2.6839 -1.55874 -2.12132 -2.12132 c
-1.55874 -2.6839 -0.795609 -3 0 -3 c
cl
gsave
1.000 0.000 0.000 setrgbcolor
fill
grestore
stroke
grestore
} bind def
391.757 303.958 o
412.989 304.098 o
439.121 304.271 o
473.433 302.492 o
481.628 298.537 o
484.922 294.55 o
488.344 272.522 o
491.863 236.464 o
495.341 206.418 o
499.044 144.302 o
506.042 78.1978 o
grestore
1.000 setlinewidth
[6 6] 0 setdash
gsave
197.6 288 353.2 36 clipbox
174.528 303.527 m
178.747 303.527 l
182.967 303.527 l
187.186 303.527 l
191.406 303.527 l
195.625 303.527 l
199.845 303.527 l
204.064 303.527 l
208.283 303.527 l
212.503 303.527 l
216.722 303.527 l
220.942 303.527 l
225.161 303.527 l
229.38 303.527 l
233.6 303.527 l
237.819 303.527 l
242.039 303.527 l
246.258 303.527 l
250.477 303.527 l
254.697 303.527 l
258.916 303.527 l
263.136 303.527 l
267.355 303.527 l
271.575 303.527 l
275.794 303.527 l
280.013 303.527 l
284.233 303.527 l
288.452 303.527 l
292.672 303.527 l
296.891 303.527 l
301.11 303.527 l
305.33 303.527 l
309.549 303.527 l
313.769 303.527 l
317.988 303.527 l
322.208 303.527 l
326.427 303.527 l
330.646 303.527 l
334.866 303.527 l
339.085 303.527 l
343.305 303.527 l
347.524 303.527 l
351.743 303.527 l
355.963 303.527 l
360.182 303.527 l
364.402 303.527 l
368.621 303.527 l
372.84 303.527 l
377.06 303.527 l
381.279 303.527 l
385.499 303.527 l
389.718 303.527 l
393.938 303.527 l
398.157 303.527 l
402.376 303.527 l
406.596 303.527 l
410.815 303.527 l
415.035 303.527 l
419.254 303.527 l
423.473 303.527 l
427.693 303.527 l
431.912 303.527 l
436.132 303.527 l
440.351 303.527 l
444.571 303.527 l
448.79 303.527 l
453.009 303.527 l
457.229 303.526 l
461.448 303.509 l
465.668 303.332 l
469.887 302.404 l
474.106 299.369 l
478.326 292.234 l
482.545 278.933 l
486.765 257.834 l
490.984 227.918 l
495.203 188.689 l
499.423 140.004 l
503.642 81.9175 l
507.862 14.573 l
508.721 -1 l
stroke
grestore
2 setlinecap
[] 0 setdash
gsave
197.6 288 353.2 36 clipbox
174.528 303.527 m
178.747 303.527 l
182.967 303.527 l
187.186 303.527 l
191.406 303.527 l
195.625 303.527 l
199.845 303.527 l
204.064 303.527 l
208.283 303.527 l
212.503 303.527 l
216.722 303.527 l
220.942 303.527 l
225.161 303.527 l
229.38 303.527 l
233.6 303.527 l
237.819 303.527 l
242.039 303.527 l
246.258 303.527 l
250.477 303.527 l
254.697 303.527 l
258.916 303.527 l
263.136 303.527 l
267.355 303.527 l
271.575 303.527 l
275.794 303.527 l
280.013 303.527 l
284.233 303.527 l
288.452 303.527 l
292.672 303.527 l
296.891 303.527 l
301.11 303.527 l
305.33 303.527 l
309.549 303.527 l
313.769 303.527 l
317.988 303.527 l
322.208 303.527 l
326.427 303.527 l
330.646 303.527 l
334.866 303.527 l
339.085 303.527 l
343.305 303.527 l
347.524 303.527 l
351.743 303.527 l
355.963 303.527 l
360.182 303.527 l
364.402 303.527 l
368.621 303.527 l
372.84 303.527 l
377.06 303.527 l
381.279 303.527 l
385.499 303.527 l
389.718 303.527 l
393.938 303.527 l
398.157 303.527 l
402.376 303.527 l
406.596 303.527 l
410.815 303.527 l
415.035 303.527 l
419.254 303.527 l
423.473 303.527 l
427.693 303.527 l
431.912 303.527 l
436.132 303.527 l
440.351 303.527 l
444.571 303.527 l
448.79 303.527 l
453.009 303.527 l
457.229 303.526 l
461.448 303.493 l
465.668 303.206 l
469.887 301.868 l
474.106 297.877 l
478.326 289.134 l
482.545 273.66 l
486.765 250.027 l
490.984 217.423 l
495.203 175.515 l
499.423 124.27 l
503.642 63.8082 l
507.577 -1 l
stroke
grestore
0.500 setlinewidth
0 setlinecap
gsave
/o {
gsave
newpath
translate
0.5 setlinewidth
1 setlinejoin
0 setlinecap
0 0 m
0 4 l
gsave
0.000 setgray
fill
grestore
stroke
grestore
} bind def
478.326 36 o
grestore
gsave
/o {
gsave
newpath
translate
0.5 setlinewidth
1 setlinejoin
0 setlinecap
0 0 m
0 -4 l
gsave
0.000 setgray
fill
grestore
stroke
grestore
} bind def
478.326 324 o
grestore
gsave
467.325815 17.000000 translate
0.000000 rotate
/DejaVuSans findfont
12.0 scalefont
setfont
0.000000 1.828125 moveto
/one glyphshow

7.634766 1.828125 moveto
/zero glyphshow

/DejaVuSans findfont
8.4 scalefont
setfont
15.269531 8.765625 moveto
/two glyphshow


grestore
gsave
/o {
gsave
newpath
translate
0.5 setlinewidth
1 setlinejoin
0 setlinecap
0 0 m
0 2 l
gsave
0.000 setgray
fill
grestore
stroke
grestore
} bind def
372.153 36 o
grestore
gsave
/o {
gsave
newpath
translate
0.5 setlinewidth
1 setlinejoin
0 setlinecap
0 0 m
0 -2 l
gsave
0.000 setgray
fill
grestore
stroke
grestore
} bind def
372.153 324 o
grestore
gsave
/o {
gsave
newpath
translate
0.5 setlinewidth
1 setlinejoin
0 setlinecap
0 0 m
0 2 l
gsave
0.000 setgray
fill
grestore
stroke
grestore
} bind def
398.901 36 o
grestore
gsave
/o {
gsave
newpath
translate
0.5 setlinewidth
1 setlinejoin
0 setlinecap
0 0 m
0 -2 l
gsave
0.000 setgray
fill
grestore
stroke
grestore
} bind def
398.901 324 o
grestore
gsave
/o {
gsave
newpath
translate
0.5 setlinewidth
1 setlinejoin
0 setlinecap
0 0 m
0 2 l
gsave
0.000 setgray
fill
grestore
stroke
grestore
} bind def
417.879 36 o
grestore
gsave
/o {
gsave
newpath
translate
0.5 setlinewidth
1 setlinejoin
0 setlinecap
0 0 m
0 -2 l
gsave
0.000 setgray
fill
grestore
stroke
grestore
} bind def
417.879 324 o
grestore
gsave
/o {
gsave
newpath
translate
0.5 setlinewidth
1 setlinejoin
0 setlinecap
0 0 m
0 2 l
gsave
0.000 setgray
fill
grestore
stroke
grestore
} bind def
432.6 36 o
grestore
gsave
/o {
gsave
newpath
translate
0.5 setlinewidth
1 setlinejoin
0 setlinecap
0 0 m
0 -2 l
gsave
0.000 setgray
fill
grestore
stroke
grestore
} bind def
432.6 324 o
grestore
gsave
/o {
gsave
newpath
translate
0.5 setlinewidth
1 setlinejoin
0 setlinecap
0 0 m
0 2 l
gsave
0.000 setgray
fill
grestore
stroke
grestore
} bind def
444.627 36 o
grestore
gsave
/o {
gsave
newpath
translate
0.5 setlinewidth
1 setlinejoin
0 setlinecap
0 0 m
0 -2 l
gsave
0.000 setgray
fill
grestore
stroke
grestore
} bind def
444.627 324 o
grestore
gsave
/o {
gsave
newpath
translate
0.5 setlinewidth
1 setlinejoin
0 setlinecap
0 0 m
0 2 l
gsave
0.000 setgray
fill
grestore
stroke
grestore
} bind def
454.796 36 o
grestore
gsave
/o {
gsave
newpath
translate
0.5 setlinewidth
1 setlinejoin
0 setlinecap
0 0 m
0 -2 l
gsave
0.000 setgray
fill
grestore
stroke
grestore
} bind def
454.796 324 o
grestore
gsave
/o {
gsave
newpath
translate
0.5 setlinewidth
1 setlinejoin
0 setlinecap
0 0 m
0 2 l
gsave
0.000 setgray
fill
grestore
stroke
grestore
} bind def
463.605 36 o
grestore
gsave
/o {
gsave
newpath
translate
0.5 setlinewidth
1 setlinejoin
0 setlinecap
0 0 m
0 -2 l
gsave
0.000 setgray
fill
grestore
stroke
grestore
} bind def
463.605 324 o
grestore
gsave
/o {
gsave
newpath
translate
0.5 setlinewidth
1 setlinejoin
0 setlinecap
0 0 m
0 2 l
gsave
0.000 setgray
fill
grestore
stroke
grestore
} bind def
471.375 36 o
grestore
gsave
/o {
gsave
newpath
translate
0.5 setlinewidth
1 setlinejoin
0 setlinecap
0 0 m
0 -2 l
gsave
0.000 setgray
fill
grestore
stroke
grestore
} bind def
471.375 324 o
grestore
gsave
/o {
gsave
newpath
translate
0.5 setlinewidth
1 setlinejoin
0 setlinecap
0 0 m
0 2 l
gsave
0.000 setgray
fill
grestore
stroke
grestore
} bind def
524.052 36 o
grestore
gsave
/o {
gsave
newpath
translate
0.5 setlinewidth
1 setlinejoin
0 setlinecap
0 0 m
0 -2 l
gsave
0.000 setgray
fill
grestore
stroke
grestore
} bind def
524.052 324 o
grestore
gsave
/o {
gsave
newpath
translate
0.5 setlinewidth
1 setlinejoin
0 setlinecap
0 0 m
0 2 l
gsave
0.000 setgray
fill
grestore
stroke
grestore
} bind def
550.8 36 o
grestore
gsave
/o {
gsave
newpath
translate
0.5 setlinewidth
1 setlinejoin
0 setlinecap
0 0 m
0 -2 l
gsave
0.000 setgray
fill
grestore
stroke
grestore
} bind def
550.8 324 o
grestore
gsave
434.487500 -0.000000 translate
0.000000 rotate
/Cmmi10 findfont
12.0 scalefont
setfont
0.000000 3.000000 moveto
/h glyphshow

/Cmr10 findfont
12.0 scalefont
setfont
6.914062 3.000000 moveto
/parenleft glyphshow

/DejaVuSans findfont
12.0 scalefont
setfont
11.572266 3.000000 moveto
/c glyphshow

18.169922 3.000000 moveto
/m glyphshow

/Cmr10 findfont
12.0 scalefont
setfont
29.859375 3.000000 moveto
/parenright glyphshow


grestore
gsave
/o {
gsave
newpath
translate
0.5 setlinewidth
1 setlinejoin
0 setlinecap
0 0 m
4 0 l
gsave
0.000 setgray
fill
grestore
stroke
grestore
} bind def
353.175 70.9989 o
grestore
gsave
/o {
gsave
newpath
translate
0.5 setlinewidth
1 setlinejoin
0 setlinecap
0 0 m
-4 0 l
gsave
0.000 setgray
fill
grestore
stroke
grestore
} bind def
550.8 70.9989 o
grestore
gsave
324.175000 63.498948 translate
0.000000 rotate
/DejaVuSans findfont
12.0 scalefont
setfont
0.000000 1.828125 moveto
/one glyphshow

7.634766 1.828125 moveto
/zero glyphshow

/DejaVuSans findfont
8.4 scalefont
setfont
15.269531 8.765625 moveto
/hyphen glyphshow

18.300586 8.765625 moveto
/two glyphshow


grestore
gsave
/o {
gsave
newpath
translate
0.5 setlinewidth
1 setlinejoin
0 setlinecap
0 0 m
4 0 l
gsave
0.000 setgray
fill
grestore
stroke
grestore
} bind def
353.175 187.263 o
grestore
gsave
/o {
gsave
newpath
translate
0.5 setlinewidth
1 setlinejoin
0 setlinecap
0 0 m
-4 0 l
gsave
0.000 setgray
fill
grestore
stroke
grestore
} bind def
550.8 187.263 o
grestore
gsave
324.175000 179.762938 translate
0.000000 rotate
/DejaVuSans findfont
12.0 scalefont
setfont
0.000000 1.937500 moveto
/one glyphshow

7.634766 1.937500 moveto
/zero glyphshow

/DejaVuSans findfont
8.4 scalefont
setfont
15.269531 8.875000 moveto
/hyphen glyphshow

18.300586 8.875000 moveto
/one glyphshow


grestore
gsave
/o {
gsave
newpath
translate
0.5 setlinewidth
1 setlinejoin
0 setlinecap
0 0 m
4 0 l
gsave
0.000 setgray
fill
grestore
stroke
grestore
} bind def
353.175 303.527 o
grestore
gsave
/o {
gsave
newpath
translate
0.5 setlinewidth
1 setlinejoin
0 setlinecap
0 0 m
-4 0 l
gsave
0.000 setgray
fill
grestore
stroke
grestore
} bind def
550.8 303.527 o
grestore
gsave
327.175000 296.026928 translate
0.000000 rotate
/DejaVuSans findfont
12.0 scalefont
setfont
0.000000 1.828125 moveto
/one glyphshow

7.634766 1.828125 moveto
/zero glyphshow

/DejaVuSans findfont
8.4 scalefont
setfont
15.269531 8.765625 moveto
/zero glyphshow


grestore
gsave
/o {
gsave
newpath
translate
0.5 setlinewidth
1 setlinejoin
0 setlinecap
0 0 m
2 0 l
gsave
0.000 setgray
fill
grestore
stroke
grestore
} bind def
353.175 36 o
grestore
gsave
/o {
gsave
newpath
translate
0.5 setlinewidth
1 setlinejoin
0 setlinecap
0 0 m
-2 0 l
gsave
0.000 setgray
fill
grestore
stroke
grestore
} bind def
550.8 36 o
grestore
gsave
/o {
gsave
newpath
translate
0.5 setlinewidth
1 setlinejoin
0 setlinecap
0 0 m
2 0 l
gsave
0.000 setgray
fill
grestore
stroke
grestore
} bind def
353.175 45.2059 o
grestore
gsave
/o {
gsave
newpath
translate
0.5 setlinewidth
1 setlinejoin
0 setlinecap
0 0 m
-2 0 l
gsave
0.000 setgray
fill
grestore
stroke
grestore
} bind def
550.8 45.2059 o
grestore
gsave
/o {
gsave
newpath
translate
0.5 setlinewidth
1 setlinejoin
0 setlinecap
0 0 m
2 0 l
gsave
0.000 setgray
fill
grestore
stroke
grestore
} bind def
353.175 52.9894 o
grestore
gsave
/o {
gsave
newpath
translate
0.5 setlinewidth
1 setlinejoin
0 setlinecap
0 0 m
-2 0 l
gsave
0.000 setgray
fill
grestore
stroke
grestore
} bind def
550.8 52.9894 o
grestore
gsave
/o {
gsave
newpath
translate
0.5 setlinewidth
1 setlinejoin
0 setlinecap
0 0 m
2 0 l
gsave
0.000 setgray
fill
grestore
stroke
grestore
} bind def
353.175 59.7318 o
grestore
gsave
/o {
gsave
newpath
translate
0.5 setlinewidth
1 setlinejoin
0 setlinecap
0 0 m
-2 0 l
gsave
0.000 setgray
fill
grestore
stroke
grestore
} bind def
550.8 59.7318 o
grestore
gsave
/o {
gsave
newpath
translate
0.5 setlinewidth
1 setlinejoin
0 setlinecap
0 0 m
2 0 l
gsave
0.000 setgray
fill
grestore
stroke
grestore
} bind def
353.175 65.679 o
grestore
gsave
/o {
gsave
newpath
translate
0.5 setlinewidth
1 setlinejoin
0 setlinecap
0 0 m
-2 0 l
gsave
0.000 setgray
fill
grestore
stroke
grestore
} bind def
550.8 65.679 o
grestore
gsave
/o {
gsave
newpath
translate
0.5 setlinewidth
1 setlinejoin
0 setlinecap
0 0 m
2 0 l
gsave
0.000 setgray
fill
grestore
stroke
grestore
} bind def
353.175 105.998 o
grestore
gsave
/o {
gsave
newpath
translate
0.5 setlinewidth
1 setlinejoin
0 setlinecap
0 0 m
-2 0 l
gsave
0.000 setgray
fill
grestore
stroke
grestore
} bind def
550.8 105.998 o
grestore
gsave
/o {
gsave
newpath
translate
0.5 setlinewidth
1 setlinejoin
0 setlinecap
0 0 m
2 0 l
gsave
0.000 setgray
fill
grestore
stroke
grestore
} bind def
353.175 126.471 o
grestore
gsave
/o {
gsave
newpath
translate
0.5 setlinewidth
1 setlinejoin
0 setlinecap
0 0 m
-2 0 l
gsave
0.000 setgray
fill
grestore
stroke
grestore
} bind def
550.8 126.471 o
grestore
gsave
/o {
gsave
newpath
translate
0.5 setlinewidth
1 setlinejoin
0 setlinecap
0 0 m
2 0 l
gsave
0.000 setgray
fill
grestore
stroke
grestore
} bind def
353.175 140.997 o
grestore
gsave
/o {
gsave
newpath
translate
0.5 setlinewidth
1 setlinejoin
0 setlinecap
0 0 m
-2 0 l
gsave
0.000 setgray
fill
grestore
stroke
grestore
} bind def
550.8 140.997 o
grestore
gsave
/o {
gsave
newpath
translate
0.5 setlinewidth
1 setlinejoin
0 setlinecap
0 0 m
2 0 l
gsave
0.000 setgray
fill
grestore
stroke
grestore
} bind def
353.175 152.264 o
grestore
gsave
/o {
gsave
newpath
translate
0.5 setlinewidth
1 setlinejoin
0 setlinecap
0 0 m
-2 0 l
gsave
0.000 setgray
fill
grestore
stroke
grestore
} bind def
550.8 152.264 o
grestore
gsave
/o {
gsave
newpath
translate
0.5 setlinewidth
1 setlinejoin
0 setlinecap
0 0 m
2 0 l
gsave
0.000 setgray
fill
grestore
stroke
grestore
} bind def
353.175 161.47 o
grestore
gsave
/o {
gsave
newpath
translate
0.5 setlinewidth
1 setlinejoin
0 setlinecap
0 0 m
-2 0 l
gsave
0.000 setgray
fill
grestore
stroke
grestore
} bind def
550.8 161.47 o
grestore
gsave
/o {
gsave
newpath
translate
0.5 setlinewidth
1 setlinejoin
0 setlinecap
0 0 m
2 0 l
gsave
0.000 setgray
fill
grestore
stroke
grestore
} bind def
353.175 169.253 o
grestore
gsave
/o {
gsave
newpath
translate
0.5 setlinewidth
1 setlinejoin
0 setlinecap
0 0 m
-2 0 l
gsave
0.000 setgray
fill
grestore
stroke
grestore
} bind def
550.8 169.253 o
grestore
gsave
/o {
gsave
newpath
translate
0.5 setlinewidth
1 setlinejoin
0 setlinecap
0 0 m
2 0 l
gsave
0.000 setgray
fill
grestore
stroke
grestore
} bind def
353.175 175.996 o
grestore
gsave
/o {
gsave
newpath
translate
0.5 setlinewidth
1 setlinejoin
0 setlinecap
0 0 m
-2 0 l
gsave
0.000 setgray
fill
grestore
stroke
grestore
} bind def
550.8 175.996 o
grestore
gsave
/o {
gsave
newpath
translate
0.5 setlinewidth
1 setlinejoin
0 setlinecap
0 0 m
2 0 l
gsave
0.000 setgray
fill
grestore
stroke
grestore
} bind def
353.175 181.943 o
grestore
gsave
/o {
gsave
newpath
translate
0.5 setlinewidth
1 setlinejoin
0 setlinecap
0 0 m
-2 0 l
gsave
0.000 setgray
fill
grestore
stroke
grestore
} bind def
550.8 181.943 o
grestore
gsave
/o {
gsave
newpath
translate
0.5 setlinewidth
1 setlinejoin
0 setlinecap
0 0 m
2 0 l
gsave
0.000 setgray
fill
grestore
stroke
grestore
} bind def
353.175 222.262 o
grestore
gsave
/o {
gsave
newpath
translate
0.5 setlinewidth
1 setlinejoin
0 setlinecap
0 0 m
-2 0 l
gsave
0.000 setgray
fill
grestore
stroke
grestore
} bind def
550.8 222.262 o
grestore
gsave
/o {
gsave
newpath
translate
0.5 setlinewidth
1 setlinejoin
0 setlinecap
0 0 m
2 0 l
gsave
0.000 setgray
fill
grestore
stroke
grestore
} bind def
353.175 242.735 o
grestore
gsave
/o {
gsave
newpath
translate
0.5 setlinewidth
1 setlinejoin
0 setlinecap
0 0 m
-2 0 l
gsave
0.000 setgray
fill
grestore
stroke
grestore
} bind def
550.8 242.735 o
grestore
gsave
/o {
gsave
newpath
translate
0.5 setlinewidth
1 setlinejoin
0 setlinecap
0 0 m
2 0 l
gsave
0.000 setgray
fill
grestore
stroke
grestore
} bind def
353.175 257.261 o
grestore
gsave
/o {
gsave
newpath
translate
0.5 setlinewidth
1 setlinejoin
0 setlinecap
0 0 m
-2 0 l
gsave
0.000 setgray
fill
grestore
stroke
grestore
} bind def
550.8 257.261 o
grestore
gsave
/o {
gsave
newpath
translate
0.5 setlinewidth
1 setlinejoin
0 setlinecap
0 0 m
2 0 l
gsave
0.000 setgray
fill
grestore
stroke
grestore
} bind def
353.175 268.528 o
grestore
gsave
/o {
gsave
newpath
translate
0.5 setlinewidth
1 setlinejoin
0 setlinecap
0 0 m
-2 0 l
gsave
0.000 setgray
fill
grestore
stroke
grestore
} bind def
550.8 268.528 o
grestore
gsave
/o {
gsave
newpath
translate
0.5 setlinewidth
1 setlinejoin
0 setlinecap
0 0 m
2 0 l
gsave
0.000 setgray
fill
grestore
stroke
grestore
} bind def
353.175 277.734 o
grestore
gsave
/o {
gsave
newpath
translate
0.5 setlinewidth
1 setlinejoin
0 setlinecap
0 0 m
-2 0 l
gsave
0.000 setgray
fill
grestore
stroke
grestore
} bind def
550.8 277.734 o
grestore
gsave
/o {
gsave
newpath
translate
0.5 setlinewidth
1 setlinejoin
0 setlinecap
0 0 m
2 0 l
gsave
0.000 setgray
fill
grestore
stroke
grestore
} bind def
353.175 285.517 o
grestore
gsave
/o {
gsave
newpath
translate
0.5 setlinewidth
1 setlinejoin
0 setlinecap
0 0 m
-2 0 l
gsave
0.000 setgray
fill
grestore
stroke
grestore
} bind def
550.8 285.517 o
grestore
gsave
/o {
gsave
newpath
translate
0.5 setlinewidth
1 setlinejoin
0 setlinecap
0 0 m
2 0 l
gsave
0.000 setgray
fill
grestore
stroke
grestore
} bind def
353.175 292.26 o
grestore
gsave
/o {
gsave
newpath
translate
0.5 setlinewidth
1 setlinejoin
0 setlinecap
0 0 m
-2 0 l
gsave
0.000 setgray
fill
grestore
stroke
grestore
} bind def
550.8 292.26 o
grestore
gsave
/o {
gsave
newpath
translate
0.5 setlinewidth
1 setlinejoin
0 setlinecap
0 0 m
2 0 l
gsave
0.000 setgray
fill
grestore
stroke
grestore
} bind def
353.175 298.207 o
grestore
gsave
/o {
gsave
newpath
translate
0.5 setlinewidth
1 setlinejoin
0 setlinecap
0 0 m
-2 0 l
gsave
0.000 setgray
fill
grestore
stroke
grestore
} bind def
550.8 298.207 o
grestore
gsave
319.175000 164.000000 translate
90.000000 rotate
/Cmmi10 findfont
12.0 scalefont
setfont
0.000000 4.000000 moveto
/K glyphshow

/Cmmi10 findfont
8.4 scalefont
setfont
10.189453 0.938875 moveto
/r glyphshow

/Cmr10 findfont
12.0 scalefont
setfont
15.603516 4.000000 moveto
/parenleft glyphshow

/Cmmi10 findfont
12.0 scalefont
setfont
20.261719 4.000000 moveto
/h glyphshow

/Cmr10 findfont
12.0 scalefont
setfont
27.175781 4.000000 moveto
/parenright glyphshow


grestore
1.000 setlinewidth
2 setlinecap
gsave
353.175 324 m
550.8 324 l
stroke
grestore
gsave
550.8 36 m
550.8 324 l
stroke
grestore
gsave
353.175 36 m
550.8 36 l
stroke
grestore
gsave
353.175 36 m
353.175 324 l
stroke
grestore

end
showpage
